\relax 
\providecommand\hyper@newdestlabel[2]{}
\@writefile{toc}{\contentsline {compteur}{R\IeC {\'E}SUM\IeC {\'E}}{v}{chapter*.3}}
\AC@undonewlabel{acro:IDTMC}
\newlabel{acro:IDTMC}{{}{v}{RÉSUMÉ}{chapter*.3}{}}
\acronymused{IDTMC}
\AC@undonewlabel{acro:PTS}
\newlabel{acro:PTS}{{}{v}{RÉSUMÉ}{chapter*.3}{}}
\acronymused{PTS}
\acronymused{IDTMC}
\acronymused{PTS}
\acronymused{PTS}
\AC@undonewlabel{acro:LTS}
\newlabel{acro:LTS}{{}{v}{RÉSUMÉ}{chapter*.3}{}}
\acronymused{LTS}
\acronymused{PTS}
\acronymused{PTS}
\acronymused{IDTMC}
\acronymused{IDTMC}
\acronymused{IDTMC}
\acronymused{IDTMC}
\acronymused{RIFP}
\@setckpt{3-Resume_sujet}{
\setcounter{page}{7}
\setcounter{equation}{0}
\setcounter{enumi}{0}
\setcounter{enumii}{0}
\setcounter{enumiii}{0}
\setcounter{enumiv}{0}
\setcounter{footnote}{0}
\setcounter{mpfootnote}{0}
\setcounter{part}{0}
\setcounter{chapter}{0}
\setcounter{section}{0}
\setcounter{subsection}{0}
\setcounter{subsubsection}{0}
\setcounter{paragraph}{0}
\setcounter{subparagraph}{0}
\setcounter{figure}{0}
\setcounter{table}{0}
\setcounter{NAT@ctr}{0}
\setcounter{parentequation}{0}
\setcounter{LT@tables}{0}
\setcounter{LT@chunks}{0}
\setcounter{AlgoLine}{0}
\setcounter{algocfline}{0}
\setcounter{algocfproc}{0}
\setcounter{algocf}{0}
\setcounter{Item}{0}
\setcounter{Hfootnote}{0}
\setcounter{bookmark@seq@number}{3}
\setcounter{ContinuedFloat}{0}
\setcounter{KVtest}{2}
\setcounter{subfigure}{0}
\setcounter{subfigure@save}{0}
\setcounter{lofdepth}{1}
\setcounter{subtable}{0}
\setcounter{subtable@save}{0}
\setcounter{lotdepth}{1}
\setcounter{mydef}{0}
\setcounter{coro}{0}
\setcounter{prop}{0}
\setcounter{mylem}{0}
\setcounter{mythm}{0}
\setcounter{section@level}{0}
}
