\relax 
\providecommand\hyper@newdestlabel[2]{}
\gdef \LT@i {\LT@entry 
    {1}{0.0pt}\LT@entry 
    {1}{0.0pt}}
\gdef \LT@ii {\LT@entry 
    {1}{52.95193pt}\LT@entry 
    {1}{373.34999pt}}
\@writefile{toc}{\contentsline {compteur}{LISTE DES SIGLES ET ABR\IeC {\'E}VIATIONS}{xiv}{chapter*.8}}
\newacro{BFS}[\AC@hyperlink{BFS}{BFS}]{Solution Basique R\IeC {\'e}alisable}
\newacro{BSP}[\AC@hyperlink{BSP}{BSP}]{Pr\IeC {\'e}dicat Basique de S\IeC {\'e}curit\IeC {\'e}}
\newacro{CMC}[\AC@hyperlink{CMC}{CMC}]{Cha\IeC {\^\i }ne de Markov \IeC {\`a} Contraintes}
\newacro{DPA}[\AC@hyperlink{DPA}{DPA}]{Automate de Parit\IeC {\'e} D\IeC {\'e}terministe}
\newacro{IDTMC}[\AC@hyperlink{IDTMC}{IDTMC}]{Cha\IeC {\^\i }ne de Markov discr\IeC {\`e}te \IeC {\`a} Intervalles}
\newacro{IMDP}[\AC@hyperlink{IMDP}{IMDP}]{Processus de D\IeC {\'e}cision Markovien \IeC {\`a} Intervalles de probabilit\IeC {\'e}}
\newacro{LTS}[\AC@hyperlink{LTS}{LTS}]{Syst\IeC {\`e}me de Transitions \IeC {\'E}tiquet\IeC {\'e}es}
\newacro{MC}[\AC@hyperlink{MC}{MC}]{Cha\IeC {\^\i }ne de Markov}
\newacro{MDP}[\AC@hyperlink{MDP}{MDP}]{Processus de D\IeC {\'e}cision Markovien}
\newacro{PTS}[\AC@hyperlink{PTS}{PTS}]{Syst\IeC {\`e}me de Transitions Probabilistes}
\newacro{RIFP}[\AC@hyperlink{RIFP}{RIFP}]{Propri\IeC {\'e}t\IeC {\'e} Rationnelle de Flux d'Information}
\@setckpt{4-Sigles_Abrev}{
\setcounter{page}{15}
\setcounter{equation}{0}
\setcounter{enumi}{0}
\setcounter{enumii}{0}
\setcounter{enumiii}{0}
\setcounter{enumiv}{0}
\setcounter{footnote}{0}
\setcounter{mpfootnote}{0}
\setcounter{part}{0}
\setcounter{chapter}{0}
\setcounter{section}{0}
\setcounter{subsection}{0}
\setcounter{subsubsection}{0}
\setcounter{paragraph}{0}
\setcounter{subparagraph}{0}
\setcounter{figure}{0}
\setcounter{table}{2}
\setcounter{NAT@ctr}{0}
\setcounter{parentequation}{0}
\setcounter{LT@tables}{2}
\setcounter{LT@chunks}{1}
\setcounter{AlgoLine}{0}
\setcounter{algocfline}{0}
\setcounter{algocfproc}{0}
\setcounter{algocf}{0}
\setcounter{Item}{0}
\setcounter{Hfootnote}{0}
\setcounter{bookmark@seq@number}{8}
\setcounter{ContinuedFloat}{0}
\setcounter{KVtest}{2}
\setcounter{subfigure}{0}
\setcounter{subfigure@save}{0}
\setcounter{lofdepth}{1}
\setcounter{subtable}{0}
\setcounter{subtable@save}{0}
\setcounter{lotdepth}{1}
\setcounter{mydef}{0}
\setcounter{coro}{0}
\setcounter{prop}{0}
\setcounter{mylem}{0}
\setcounter{mythm}{0}
\setcounter{section@level}{0}
}
