\relax 
\providecommand\hyper@newdestlabel[2]{}
\@writefile{toc}{\contentsline {chapter}{\numberline {1}INTRODUCTION}{1}{chapter.1}}
\newlabel{sec:Introduction}{{1}{1}{INTRODUCTION}{chapter.1}{}}
\@writefile{toc}{\contentsline {section}{\numberline {1.1}\IeC {\'E}l\IeC {\'e}ments de la probl\IeC {\'e}matique}{1}{section.1.1}}
\citation{Clarkson10}
\citation{BMS15}
\@writefile{toc}{\contentsline {section}{\numberline {1.2}Exemple de motivation}{3}{section.1.2}}
\providecommand*\caption@xref[2]{\@setref\relax\@undefined{#1}}
\newlabel{MotivSpec}{{1.1a}{4}{Subfigure 1 1.1a}{subfigure.1.1.1}{}}
\newlabel{sub@MotivSpec}{{(a)}{a}{Subfigure 1 1.1a\relax }{subfigure.1.1.1}{}}
\newlabel{MotivPts}{{1.1b}{4}{Subfigure 1 1.1b}{subfigure.1.1.2}{}}
\newlabel{sub@MotivPts}{{(b)}{b}{Subfigure 1 1.1b\relax }{subfigure.1.1.2}{}}
\@writefile{lof}{\contentsline {figure}{\numberline {Figure\nobreakspace  1.1}{\ignorespaces Exemple de motivation}}{4}{figure.1.1}}
\newlabel{exMotiv}{{1.1}{4}{Exemple de motivation}{figure.1.1}{}}
\@writefile{lof}{\contentsline {subfigure}{\numberline{(a)}{\ignorespaces {Mod\IeC {\`e}le $\ensuremath {\mathcal {S}}_1$ }}}{4}{subfigure.1.1}}
\@writefile{lof}{\contentsline {subfigure}{\numberline{(b)}{\ignorespaces {Mod\IeC {\`e}le $\ensuremath {\mathcal {S}}_2$ }}}{4}{subfigure.1.2}}
\@writefile{toc}{\contentsline {section}{\numberline {1.3}Objectifs de recherche}{4}{section.1.3}}
\@writefile{toc}{\contentsline {section}{\numberline {1.4}M\IeC {\'e}thodologie}{5}{section.1.4}}
\acronymused{IDTMC}
\acronymused{IDTMC}
\acronymused{IDTMC}
\acronymused{PTS}
\acronymused{PTS}
\@writefile{toc}{\contentsline {section}{\numberline {1.5}Plan du m\IeC {\'e}moire}{6}{section.1.5}}
\@setckpt{5-Introduction}{
\setcounter{page}{7}
\setcounter{equation}{0}
\setcounter{enumi}{3}
\setcounter{enumii}{0}
\setcounter{enumiii}{0}
\setcounter{enumiv}{0}
\setcounter{footnote}{0}
\setcounter{mpfootnote}{0}
\setcounter{part}{0}
\setcounter{chapter}{1}
\setcounter{section}{5}
\setcounter{subsection}{0}
\setcounter{subsubsection}{0}
\setcounter{paragraph}{0}
\setcounter{subparagraph}{0}
\setcounter{figure}{1}
\setcounter{table}{0}
\setcounter{NAT@ctr}{0}
\setcounter{parentequation}{0}
\setcounter{LT@tables}{2}
\setcounter{LT@chunks}{1}
\setcounter{AlgoLine}{0}
\setcounter{algocfline}{0}
\setcounter{algocfproc}{0}
\setcounter{algocf}{0}
\setcounter{Item}{3}
\setcounter{Hfootnote}{0}
\setcounter{bookmark@seq@number}{14}
\setcounter{ContinuedFloat}{0}
\setcounter{KVtest}{2}
\setcounter{subfigure}{0}
\setcounter{subfigure@save}{2}
\setcounter{lofdepth}{1}
\setcounter{subtable}{0}
\setcounter{subtable@save}{0}
\setcounter{lotdepth}{1}
\setcounter{mydef}{0}
\setcounter{coro}{0}
\setcounter{prop}{0}
\setcounter{mylem}{0}
\setcounter{mythm}{0}
\setcounter{section@level}{1}
}
