\relax 
\providecommand\hyper@newdestlabel[2]{}
\citation{Abadi1991}
\citation{JonssonL91}
\citation{Delahaye2012}
\@writefile{toc}{\contentsline {chapter}{\numberline {2}REVUE DE LITT\IeC {\'E}RATURE}{7}{chapter.2}}
\newlabel{sec:RevLitt}{{2}{7}{REVUE DE LITTÉRATURE}{chapter.2}{}}
\@writefile{toc}{\contentsline {section}{\numberline {2.1}Raffinement et sp\IeC {\'e}cification}{7}{section.2.1}}
\newlabel{revue:spec}{{2.1}{7}{Raffinement et spécification}{section.2.1}{}}
\acronymused{PTS}
\acronymused{IDTMC}
\acronymused{PTS}
\acronymused{IDTMC}
\acronymused{PTS}
\acronymused{IDTMC}
\acronymused{IDTMC}
\citation{Clarkson10}
\citation{Clarkson10}
\citation{Clarkson10}
\citation{GoguenM82}
\citation{Rushby92}
\citation{Sutherland1986}
\citation{Mantel2000,Mantel2001}
\@writefile{toc}{\contentsline {section}{\numberline {2.2}Le cas des syst\IeC {\`e}mes s\IeC {\'e}curis\IeC {\'e}s}{8}{section.2.2}}
\citation{Smith09}
\citation{Shannon48}
\citation{ChatterjeeQIF11}
\citation{Lin2011}
\citation{Mazare04Op}
\citation{BryansKR04,BryansKR05}
\citation{Koutny08}
\citation{Mullins14}
\AC@undonewlabel{acro:BSP}
\newlabel{acro:BSP}{{2.2}{9}{Le cas des systèmes sécurisés}{section.2.2}{}}
\acronymused{BSP}
\citation{Berard2014-rifp}
\citation{Sassolas2011,BMS15}
\citation{main}
\AC@undonewlabel{acro:RIFP}
\newlabel{acro:RIFP}{{2.2}{10}{Le cas des systèmes sécurisés}{section.2.2}{}}
\acronymused{RIFP}
\acronymused{RIFP}
\acronymused{PTS}
\acronymused{IDTMC}
\acronymused{PTS}
\acronymused{IDTMC}
\acronymused{IDTMC}
\acronymused{IDTMC}
\@setckpt{6-Revue_litterature}{
\setcounter{page}{12}
\setcounter{equation}{0}
\setcounter{enumi}{3}
\setcounter{enumii}{0}
\setcounter{enumiii}{0}
\setcounter{enumiv}{0}
\setcounter{footnote}{0}
\setcounter{mpfootnote}{0}
\setcounter{part}{0}
\setcounter{chapter}{2}
\setcounter{section}{2}
\setcounter{subsection}{0}
\setcounter{subsubsection}{0}
\setcounter{paragraph}{0}
\setcounter{subparagraph}{0}
\setcounter{figure}{0}
\setcounter{table}{0}
\setcounter{NAT@ctr}{0}
\setcounter{parentequation}{0}
\setcounter{LT@tables}{2}
\setcounter{LT@chunks}{1}
\setcounter{AlgoLine}{0}
\setcounter{algocfline}{0}
\setcounter{algocfproc}{0}
\setcounter{algocf}{0}
\setcounter{Item}{3}
\setcounter{Hfootnote}{0}
\setcounter{bookmark@seq@number}{17}
\setcounter{ContinuedFloat}{0}
\setcounter{KVtest}{2}
\setcounter{subfigure}{0}
\setcounter{subfigure@save}{2}
\setcounter{lofdepth}{1}
\setcounter{subtable}{0}
\setcounter{subtable@save}{0}
\setcounter{lotdepth}{1}
\setcounter{mydef}{0}
\setcounter{coro}{0}
\setcounter{prop}{0}
\setcounter{mylem}{0}
\setcounter{mythm}{0}
\setcounter{section@level}{1}
}
