\relax 
\providecommand\hyper@newdestlabel[2]{}
\citation{main,Piterman07}
\@writefile{toc}{\contentsline {chapter}{\numberline {3}PR\IeC {\'E}LIMINAIRES}{12}{chapter.3}}
\newlabel{sec:Prelim}{{3}{12}{PRÉLIMINAIRES}{chapter.3}{}}
\@writefile{toc}{\contentsline {section}{\numberline {3.1}Mod\IeC {\'e}lisation}{12}{section.3.1}}
\newlabel{spec}{{3.1}{12}{Modélisation}{section.3.1}{}}
\@writefile{toc}{\contentsline {subsection}{\numberline {3.1.1}Langages et automates}{12}{subsection.3.1.1}}
\newlabel{def:automateBuchi}{{1}{12}{Automate}{mydef.1}{}}
\citation{Buchi62,Piterman07}
\newlabel{def:DPA}{{2}{13}{\acf {DPA}}{mydef.2}{}}
\acronymused{DPA}
\acronymused{DPA}
\acronymused{DPA}
\acronymused{DPA}
\citation{BaierKatoen2008}
\@writefile{lof}{\contentsline {figure}{\numberline {Figure\nobreakspace  3.1}{\ignorespaces Exemple de DPA v\IeC {\'e}rifiant le langage $\omega $-r\IeC {\'e}gulier $L=a\ensuremath  {^{\omega }}$, sur l'alphabet $\Sigma =\{a,b,c\}$}}{14}{figure.3.1}}
\newlabel{exDPA}{{3.1}{14}{}{figure.3.1}{}}
\acronymused{DPA}
\acronymused{DPA}
\@writefile{toc}{\contentsline {subsection}{\numberline {3.1.2}Les syst\IeC {\`e}mes de transitions}{14}{subsection.3.1.2}}
\acronymused{LTS}
\acronymused{LTS}
\@writefile{lof}{\contentsline {figure}{\numberline {Figure\nobreakspace  3.2}{\ignorespaces Exemple de LTS}}{15}{figure.3.2}}
\newlabel{exLTS}{{3.2}{15}{}{figure.3.2}{}}
\@writefile{toc}{\contentsline {paragraph}{Probabilisation}{15}{section*.9}}
\acronymused{LTS}
\acronymused{LTS}
\AC@undonewlabel{acro:MC}
\newlabel{acro:MC}{{4}{16}{\acf {MC}}{mydef.4}{}}
\acronymused{MC}
\acronymused{MC}
\acronymused{MC}
\acronymused{LTS}
\acronymused{PTS}
\acronymused{PTS}
\acronymused{PTS}
\acronymused{PTS}
\@writefile{lof}{\contentsline {figure}{\numberline {Figure\nobreakspace  3.3}{\ignorespaces Exemple de PTS}}{16}{figure.3.3}}
\newlabel{exPTS}{{3.3}{16}{}{figure.3.3}{}}
\acronymused{PTS}
\@writefile{toc}{\contentsline {subsection}{\numberline {3.1.3}Un mod\IeC {\`e}le de sp\IeC {\'e}cification}{17}{subsection.3.1.3}}
\newlabel{ssec:MDP}{{3.1.3}{17}{Un modèle de spécification}{subsection.3.1.3}{}}
\acronymused{PTS}
\newlabel{def:MDP}{{6}{17}{\acf {MDP}}{mydef.6}{}}
\AC@undonewlabel{acro:MDP}
\newlabel{acro:MDP}{{6}{17}{\acf {MDP}}{mydef.6}{}}
\acronymused{MDP}
\acronymused{MDP}
\acronymused{MDP}
\acronymused{PTS}
\acronymused{PTS}
\acronymused{PTS}
\acronymused{PTS}
\citation{Mullins14,main}
\@writefile{lof}{\contentsline {figure}{\numberline {Figure\nobreakspace  3.4}{\ignorespaces Exemple de MDP}}{18}{figure.3.4}}
\newlabel{exMDP}{{3.4}{18}{}{figure.3.4}{}}
\acronymused{MDP}
\@writefile{toc}{\contentsline {section}{\numberline {3.2}V\IeC {\'e}rification de l'opacit\IeC {\'e}}{18}{section.3.2}}
\newlabel{sec:plus-op}{{3.2}{18}{Vérification de l'opacité}{section.3.2}{}}
\citation{BMS15}
\@writefile{toc}{\contentsline {subsection}{\numberline {3.2.1}Une opacit\IeC {\'e} binaire}{19}{subsection.3.2.1}}
\acronymused{LTS}
\newlabel{def:opbin}{{7}{19}{Opacité}{mydef.7}{}}
\acronymused{LTS}
\citation{BMS15,Sassolas2011}
\@writefile{toc}{\contentsline {subsection}{\numberline {3.2.2}L'opacit\IeC {\'e} probabiliste}{20}{subsection.3.2.2}}
\@writefile{toc}{\contentsline {subsubsection}{L'opacit\IeC {\'e} probabiliste lib\IeC {\'e}rale}{20}{section*.10}}
\acronymused{PTS}
\acronymused{PTS}
\newlabel{P:pol}{{1}{20}{}{prop.1}{}}
\acronymused{PTS}
\citation{Smith09}
\citation{BMS15,Sassolas2011}
\acronymused{PTS}
\acronymused{PTS}
\acronymused{PTS}
\@writefile{toc}{\contentsline {subsubsection}{D'autres formes d'opacit\IeC {\'e}}{21}{section*.11}}
\@writefile{toc}{\contentsline {paragraph}{Opacit\IeC {\'e} restrictive}{21}{section*.12}}
\citation{Saboori2014}
\acronymused{PTS}
\newlabel{propOR}{{2}{22}{}{prop.2}{}}
\acronymused{PTS}
\@writefile{toc}{\contentsline {paragraph}{Un mod\IeC {\`e}le alternatif}{22}{section*.13}}
\citation{Mullins14}
\acronymused{PTS}
\acronymused{PTS}
\acronymused{PTS}
\newlabel{Def:QOU}{{11}{23}{Quasi-opacité uniforme}{mydef.11}{}}
\acronymused{PTS}
\@writefile{toc}{\contentsline {paragraph}{En r\IeC {\'e}sum\IeC {\'e}}{24}{section*.14}}
\acronymused{PTS}
\@setckpt{7-Preliminaires}{
\setcounter{page}{25}
\setcounter{equation}{0}
\setcounter{enumi}{3}
\setcounter{enumii}{0}
\setcounter{enumiii}{0}
\setcounter{enumiv}{0}
\setcounter{footnote}{0}
\setcounter{mpfootnote}{0}
\setcounter{part}{0}
\setcounter{chapter}{3}
\setcounter{section}{2}
\setcounter{subsection}{2}
\setcounter{subsubsection}{0}
\setcounter{paragraph}{0}
\setcounter{subparagraph}{0}
\setcounter{figure}{4}
\setcounter{table}{0}
\setcounter{NAT@ctr}{0}
\setcounter{parentequation}{0}
\setcounter{LT@tables}{2}
\setcounter{LT@chunks}{1}
\setcounter{AlgoLine}{0}
\setcounter{algocfline}{0}
\setcounter{algocfproc}{0}
\setcounter{algocf}{0}
\setcounter{Item}{3}
\setcounter{Hfootnote}{0}
\setcounter{bookmark@seq@number}{25}
\setcounter{ContinuedFloat}{0}
\setcounter{KVtest}{2}
\setcounter{subfigure}{0}
\setcounter{subfigure@save}{2}
\setcounter{lofdepth}{1}
\setcounter{subtable}{0}
\setcounter{subtable@save}{0}
\setcounter{lotdepth}{1}
\setcounter{mydef}{11}
\setcounter{coro}{0}
\setcounter{prop}{2}
\setcounter{mylem}{0}
\setcounter{mythm}{1}
\setcounter{section@level}{4}
}
