\relax 
\providecommand\hyper@newdestlabel[2]{}
\@writefile{toc}{\contentsline {chapter}{\numberline {5}V\IeC {\'E}RIFICATION DE L'OPACIT\IeC {\'E}}{39}{chapter.5}}
\newlabel{sec:Resultats}{{5}{39}{VÉRIFICATION DE L'OPACITÉ}{chapter.5}{}}
\@writefile{toc}{\contentsline {section}{\numberline {5.1}Notions pr\IeC {\'e}liminaires}{39}{section.5.1}}
\newlabel{sec:notPrel}{{5.1}{39}{Notions préliminaires}{section.5.1}{}}
\acronymused{BFS}
\@writefile{toc}{\contentsline {subsection}{\numberline {5.1.1}Synchronisation entre un DPA et une IDTMC}{39}{subsection.5.1.1}}
\newlabel{ssec:synchro}{{5.1.1}{39}{Synchronisation entre un DPA et une IDTMC}{subsection.5.1.1}{}}
\newlabel{synchro}{{22}{40}{}{mydef.22}{}}
\acronymused{DPA}
\acronymused{IDTMC}
\acronymused{IDTMC}
\acronymused{DPA}
\acronymused{IDTMC}
\acronymused{IDTMC}
\acronymused{IDTMC}
\acronymused{DPA}
\acronymused{DPA}
\acronymused{IDTMC}
\@writefile{lof}{\contentsline {figure}{\numberline {Figure\nobreakspace  5.1}{\ignorespaces Exemple de synchronisation entre un DPA et une IDTMC}}{40}{figure.5.1}}
\newlabel{exSynchro}{{5.1}{40}{}{figure.5.1}{}}
\acronymused{BFS}
\@writefile{toc}{\contentsline {subsection}{\numberline {5.1.2}\acf {BFS}}{41}{subsection.5.1.2}}
\newlabel{ssec:bfs}{{5.1.2}{41}{\acf {BFS}}{subsection.5.1.2}{}}
\acronymused{BFS}
\newlabel{def:bfs}{{23}{41}{\acf {BFS}}{mydef.23}{}}
\acronymused{BFS}
\acronymused{BFS}
\acronymused{BFS}
\acronymused{BFS}
\acronymused{BFS}
\newlabel{prop:bsf-compl}{{10}{41}{}{prop.10}{}}
\acronymused{BFS}
\acronymused{BFS}
\acronymused{BFS}
\citation{BerardCS15}
\acronymused{BFS}
\acronymused{BFS}
\@writefile{lof}{\contentsline {figure}{\numberline {Figure\nobreakspace  5.2}{\ignorespaces Illustration de la r\IeC {\'e}solution du probl\IeC {\`e}me de l'exemple}}{42}{figure.5.2}}
\newlabel{fig:graphe-exemple-bfs}{{5.2}{42}{}{figure.5.2}{}}
\citation{Chatterjee08}
\@writefile{toc}{\contentsline {subsection}{\numberline {5.1.3}Calcul d'un MDP \IeC {\`a} partir d'une IDTMC}{43}{subsection.5.1.3}}
\newlabel{ssec:idtmcTOmdp}{{5.1.3}{43}{Calcul d'un MDP à partir d'une IDTMC}{subsection.5.1.3}{}}
\acronymused{BFS}
\acronymused{BFS}
\acronymused{BFS}
\acronymused{BFS}
\acronymused{MDP}
\acronymused{BFS}
\@writefile{loa}{\contentsline {algocf}{\numberline {1}{\ignorespaces Algorithme de construction d'un MDP \IeC {\`a} partir d'une IDTMC}}{43}{algocf.1}}
\newlabel{algo:idtmcTOmdp}{{1}{43}{Calcul d'un MDP à partir d'une IDTMC}{algocf.1}{}}
\citation{BMS15}
\acronymused{IDTMC}
\acronymused{IDTMC}
\acronymused{BFS}
\acronymused{MDP}
\@writefile{toc}{\contentsline {section}{\numberline {5.2}Calcul de l'opacit\IeC {\'e} lib\IeC {\'e}rale dans le cas des IDTMC non-modales}{44}{section.5.2}}
\newlabel{sec:opNM}{{5.2}{44}{Calcul de l'opacité libérale dans le cas des IDTMC non-modales}{section.5.2}{}}
\acronymused{IDTMC}
\acronymused{IDTMC}
\acronymused{PTS}
\newlabel{thm:calculNM}{{2}{44}{Décidabilité de l'opacité libérale}{mythm.2}{}}
\acronymused{IDTMC}
\citation{Piterman07}
\acronymused{DPA}
\@writefile{loa}{\contentsline {algocf}{\numberline {2}{\ignorespaces Algorithme de calcul de l'opacit\IeC {\'e} lib\IeC {\'e}rale dans une IDTMC non-modale}}{45}{algocf.2}}
\newlabel{algo:thmNM}{{2}{45}{Calcul de l'opacité libérale dans le cas des IDTMC non-modales}{algocf.2}{}}
\@writefile{toc}{\contentsline {paragraph}{\IeC {\'E}tape 1.}{45}{section*.15}}
\acronymused{IDTMC}
\acronymused{IDTMC}
\acronymused{DPA}
\acronymused{DPA}
\acronymused{IDTMC}
\acronymused{IDTMC}
\citation{Piterman07}
\@writefile{toc}{\contentsline {paragraph}{\IeC {\'E}tape 2.}{46}{section*.16}}
\@writefile{toc}{\contentsline {paragraph}{\IeC {\'E}tape 3.}{46}{section*.17}}
\newlabel{thm:complNM}{{2}{46}{Complexité de l'algorithme de calcul de l'opacité libérale}{coro.2}{}}
\@writefile{toc}{\contentsline {section}{\numberline {5.3}Une approximation du cas g\IeC {\'e}n\IeC {\'e}ral}{46}{section.5.3}}
\newlabel{sec:opM}{{5.3}{46}{Une approximation du cas général}{section.5.3}{}}
\acronymused{IDTMC}
\citation{main}
\@writefile{toc}{\contentsline {subsection}{\numberline {5.3.1}D\IeC {\'e}termination des transitions modales}{47}{subsection.5.3.1}}
\acronymused{IDTMC}
\acronymused{IDTMC}
\acronymused{IDTMC}
\@writefile{loa}{\contentsline {algocf}{\numberline {3}{\ignorespaces Algorithme de d\IeC {\'e}termination des transitions modales}}{48}{algocf.3}}
\newlabel{algomod}{{3}{48}{Détermination des transitions modales}{algocf.3}{}}
\@writefile{toc}{\contentsline {subsection}{\numberline {5.3.2}\IeC {\'E}limination de certaines transitions modales}{48}{subsection.5.3.2}}
\acronymused{IDTMC}
\acronymused{IDTMC}
\acronymused{IDTMC}
\acronymused{IDTMC}
\@writefile{loa}{\contentsline {algocf}{\numberline {4}{\ignorespaces Algorithme d'\IeC {\'e}limination d'un ensemble de transitions modales dans une sp\IeC {\'e}cification}}{49}{algocf.4}}
\newlabel{algoelim}{{4}{49}{Élimination de certaines transitions modales}{algocf.4}{}}
\newlabel{exIDTMC2}{{5.3a}{49}{Subfigure 5 5.3a}{subfigure.5.3.1}{}}
\newlabel{sub@exIDTMC2}{{(a)}{a}{Subfigure 5 5.3a\relax }{subfigure.5.3.1}{}}
\newlabel{exNonIMC2}{{5.3b}{49}{Subfigure 5 5.3b}{subfigure.5.3.2}{}}
\newlabel{sub@exNonIMC2}{{(b)}{b}{Subfigure 5 5.3b\relax }{subfigure.5.3.2}{}}
\@writefile{lof}{\contentsline {figure}{\numberline {Figure\nobreakspace  5.3}{\ignorespaces Application de l'algorithme \ref  {algoelim} sur les transitions modales $(q_0,q_1)$ et $(q_0,q_3)$}}{49}{figure.5.3}}
\newlabel{exAlgo}{{5.3}{49}{Élimination de certaines transitions modales}{figure.5.3}{}}
\@writefile{lof}{\contentsline {subfigure}{\numberline{(a)}{\ignorespaces {Exemple d'IDTMC modale}}}{49}{subfigure.3.1}}
\@writefile{lof}{\contentsline {subfigure}{\numberline{(b)}{\ignorespaces {Objet issu de l'algorithme}}}{49}{subfigure.3.2}}
\@writefile{toc}{\contentsline {subsection}{\numberline {5.3.3}D\IeC {\'e}pliage de l'ordonnancement}{50}{subsection.5.3.3}}
\acronymused{IDTMC}
\acronymused{IDTMC}
\acronymused{IDTMC}
\newlabel{lem:union}{{1}{50}{}{mylem.1}{}}
\acronymused{IDTMC}
\@writefile{toc}{\contentsline {subsection}{\numberline {5.3.4}Approximation du calcul de l'opacit\IeC {\'e} lib\IeC {\'e}rale dans le cas des IDTMC modales}{50}{subsection.5.3.4}}
\acronymused{IDTMC}
\acronymused{IDTMC}
\newlabel{thm:approx}{{3}{51}{Approximation de l'opacité libérale d'une spécification modale}{mythm.3}{}}
\acronymused{IDTMC}
\acronymused{IDTMC}
\newlabel{pc}{{5.1}{51}{Approximation du calcul de l'opacité libérale dans le cas des IDTMC modales}{equation.5.3.1}{}}
\acronymused{IDTMC}
\@writefile{loa}{\contentsline {algocf}{\numberline {5}{\ignorespaces Algorithme de calcul de l'opacit\IeC {\'e} lib\IeC {\'e}rale d'une sp\IeC {\'e}cification modale}}{52}{algocf.5}}
\newlabel{algoOp}{{5}{52}{Approximation du calcul de l'opacité libérale dans le cas des IDTMC modales}{algocf.5}{}}
\newlabel{pol1}{{5.2}{52}{Approximation du calcul de l'opacité libérale dans le cas des IDTMC modales}{equation.5.3.2}{}}
\newlabel{pol2}{{5.3}{53}{Approximation du calcul de l'opacité libérale dans le cas des IDTMC modales}{equation.5.3.3}{}}
\newlabel{pol3}{{5.4}{53}{Approximation du calcul de l'opacité libérale dans le cas des IDTMC modales}{equation.5.3.4}{}}
\citation{main}
\acronymused{IDTMC}
\@writefile{toc}{\contentsline {section}{\numberline {5.4}Pr\IeC {\'e}servation de l'opacit\IeC {\'e} lib\IeC {\'e}rale par raffinement}{54}{section.5.4}}
\newlabel{sec:monotonie}{{5.4}{54}{Préservation de l'opacité libérale par raffinement}{section.5.4}{}}
\newlabel{thm:mono}{{4}{54}{Préservation de l'opacité libérale par raffinement}{mythm.4}{}}
\acronymused{IDTMC}
\@writefile{lof}{\contentsline {figure}{\numberline {Figure\nobreakspace  5.4}{\ignorespaces Illustration de la preuve du th\IeC {\'e}or\IeC {\`e}me \ref  {thm:sous-res}}}{55}{figure.5.4}}
\newlabel{relation}{{5.4}{55}{Préservation de l'opacité libérale par raffinement}{figure.5.4}{}}
\newlabel{thm:sous-res}{{5}{55}{}{mythm.5}{}}
\acronymused{IDTMC}
\@writefile{toc}{\contentsline {paragraph}{Quelques notations \IeC {\`a} propos des pr\IeC {\'e}fixes finis d'ex\IeC {\'e}cutions}{55}{section*.18}}
\acronymused{IDTMC}
\acronymused{PTS}
\citation{main}
\citation{main}
\acronymused{PTS}
\@writefile{toc}{\contentsline {section}{\numberline {5.5}Cas des autres opacit\IeC {\'e}s}{57}{section.5.5}}
\newlabel{sec:autres}{{5.5}{57}{Cas des autres opacités}{section.5.5}{}}
\acronymused{PTS}
\@writefile{toc}{\contentsline {subsection}{\numberline {5.5.1}Quasi-opacit\IeC {\'e} uniforme}{57}{subsection.5.5.1}}
\acronymused{IDTMC}
\citation{Saboori2014}
\newlabel{Def:QOUI}{{24}{58}{Quasi-opacité uniforme dans une \ac {IDTMC}}{mydef.24}{}}
\acronymused{IDTMC}
\acronymused{IDTMC}
\acronymused{IDTMC}
\acronymused{IDTMC}
\@writefile{toc}{\contentsline {subsection}{\numberline {5.5.2}Opacit\IeC {\'e} restrictive}{59}{subsection.5.5.2}}
\acronymused{IDTMC}
\newlabel{def:orspec}{{25}{59}{Opacité restrictive dans une \ac {IDTMC}}{mydef.25}{}}
\acronymused{IDTMC}
\acronymused{IDTMC}
\acronymused{PTS}
\@setckpt{7-Resultats}{
\setcounter{page}{60}
\setcounter{equation}{4}
\setcounter{enumi}{4}
\setcounter{enumii}{0}
\setcounter{enumiii}{0}
\setcounter{enumiv}{0}
\setcounter{footnote}{0}
\setcounter{mpfootnote}{0}
\setcounter{part}{0}
\setcounter{chapter}{5}
\setcounter{section}{5}
\setcounter{subsection}{2}
\setcounter{subsubsection}{0}
\setcounter{paragraph}{0}
\setcounter{subparagraph}{0}
\setcounter{figure}{4}
\setcounter{table}{0}
\setcounter{NAT@ctr}{0}
\setcounter{parentequation}{0}
\setcounter{LT@tables}{2}
\setcounter{LT@chunks}{1}
\setcounter{AlgoLine}{10}
\setcounter{algocfline}{5}
\setcounter{algocfproc}{5}
\setcounter{algocf}{5}
\setcounter{Item}{7}
\setcounter{Hfootnote}{0}
\setcounter{bookmark@seq@number}{47}
\setcounter{ContinuedFloat}{0}
\setcounter{KVtest}{2}
\setcounter{subfigure}{0}
\setcounter{subfigure@save}{2}
\setcounter{lofdepth}{1}
\setcounter{subtable}{0}
\setcounter{subtable@save}{0}
\setcounter{lotdepth}{1}
\setcounter{mydef}{25}
\setcounter{coro}{3}
\setcounter{prop}{10}
\setcounter{mylem}{1}
\setcounter{mythm}{6}
\setcounter{section@level}{2}
}
