\relax 
\providecommand\hyper@newdestlabel[2]{}
\citation{Biondi14}
\@writefile{toc}{\contentsline {chapter}{\numberline {6}\IeC {\'E}TUDE DE CAS}{60}{chapter.6}}
\newlabel{sec:Theme2}{{6}{60}{ÉTUDE DE CAS}{chapter.6}{}}
\@writefile{toc}{\contentsline {section}{\numberline {6.1}Description de l'\IeC {\'e}tude de cas}{60}{section.6.1}}
\@writefile{toc}{\contentsline {subsection}{\numberline {6.1.1}Mod\IeC {\'e}lisation du syst\IeC {\`e}me}{60}{subsection.6.1.1}}
\newlabel{sec:model}{{6.1.1}{60}{Modélisation du système}{subsection.6.1.1}{}}
\acronymused{IDTMC}
\@writefile{lof}{\contentsline {figure}{\numberline {Figure\nobreakspace  6.1}{\ignorespaces Un syst\IeC {\`e}me de contr\IeC {\^o}le d'acc\IeC {\`e}s \IeC {\`a} une base de donn\IeC {\'e}es m\IeC {\'e}dicales $\ensuremath  {\mathcal  {S}}_2$}}{61}{figure.6.1}}
\newlabel{fig:auth}{{6.1}{61}{Modélisation du système}{figure.6.1}{}}
\@writefile{toc}{\contentsline {subsection}{\numberline {6.1.2}Requis de s\IeC {\'e}curit\IeC {\'e}}{62}{subsection.6.1.2}}
\newlabel{sec:requis}{{6.1.2}{62}{Requis de sécurité}{subsection.6.1.2}{}}
\@writefile{lof}{\contentsline {figure}{\numberline {Figure\nobreakspace  6.2}{\ignorespaces Canal cach\IeC {\'e} de communication entre le complice et l'attaquant}}{62}{figure.6.2}}
\newlabel{fig:canal}{{6.2}{62}{Requis de sécurité}{figure.6.2}{}}
\@writefile{toc}{\contentsline {section}{\numberline {6.2}Calcul de l'opacit\IeC {\'e} binaire}{63}{section.6.2}}
\newlabel{sec:binaire}{{6.2}{63}{Calcul de l'opacité binaire}{section.6.2}{}}
\acronymused{IDTMC}
\acronymused{PTS}
\@writefile{lof}{\contentsline {figure}{\numberline {Figure\nobreakspace  6.3}{\ignorespaces Une impl\IeC {\'e}mentation de $\ensuremath  {\mathcal  {S}}_2$}}{63}{figure.6.3}}
\newlabel{fig:pts}{{6.3}{63}{Calcul de l'opacité binaire}{figure.6.3}{}}
\@writefile{toc}{\contentsline {section}{\numberline {6.3}Opacit\IeC {\'e} lib\IeC {\'e}rale}{64}{section.6.3}}
\acronymused{IDTMC}
\acronymused{IDTMC}
\@writefile{lof}{\contentsline {figure}{\numberline {Figure\nobreakspace  6.4}{\ignorespaces Syst\IeC {\`e}me de transitions $\mathcal  {A}_{1,\theta _1}$ -- r\IeC {\'e}sultat du d\IeC {\'e}pliage d'un ordonnanceur sans-m\IeC {\'e}moire}}{64}{figure.6.4}}
\newlabel{fig:sans-mem}{{6.4}{64}{Opacité libérale}{figure.6.4}{}}
\@writefile{lof}{\contentsline {figure}{\numberline {Figure\nobreakspace  6.5}{\ignorespaces R\IeC {\'e}sultat de la seconde \IeC {\'e}tape -- $\ensuremath  {\mathcal  {S}}_2\times \mathcal  {A}_{1,\theta _1}\setminus \mathcal  {E}$}}{64}{figure.6.5}}
\newlabel{fig:ord1}{{6.5}{64}{Opacité libérale}{figure.6.5}{}}
\acronymused{IDTMC}
\@writefile{toc}{\contentsline {subsection}{\numberline {6.3.1}Application du th\IeC {\'e}or\IeC {\`e}me \ref  {thm:calculNM}}{65}{subsection.6.3.1}}
\acronymused{DPA}
\@writefile{lof}{\contentsline {figure}{\numberline {Figure\nobreakspace  6.6}{\ignorespaces Construction du \ac {DPA} $\mathcal  {A}_\mathcal  {V}$}}{65}{figure.6.6}}
\acronymused{DPA}
\newlabel{fig:dpa}{{6.6}{65}{Application du théorème \ref {thm:calculNM}}{figure.6.6}{}}
\acronymused{IDTMC}
\acronymused{DPA}
\acronymused{IDTMC}
\@writefile{lof}{\contentsline {figure}{\numberline {Figure\nobreakspace  6.7}{\ignorespaces Application du th\IeC {\'e}or\IeC {\`e}me -- $\ensuremath  {\mathcal  {S}}_\mathcal  {V}={\setbox \z@ \hbox {\frozen@everymath \@emptytoks \mathsurround \z@ $\nulldelimiterspace \z@ \left (\vcenter to\@ne \big@size {}\right .$}\box \z@ }\ensuremath  {\mathcal  {S}}_2\times \mathcal  {A}_{1,\theta _1}\setminus \mathcal  {E}{\setbox \z@ \hbox {\frozen@everymath \@emptytoks \mathsurround \z@ $\nulldelimiterspace \z@ \left )\vcenter to\@ne \big@size {}\right .$}\box \z@ }\otimes \mathcal  {A}_\mathcal  {V} $}}{66}{figure.6.7}}
\newlabel{fig:idtmcProd}{{6.7}{66}{Application du théorème \ref {thm:calculNM}}{figure.6.7}{}}
\@writefile{lof}{\contentsline {figure}{\numberline {Figure\nobreakspace  6.8}{\ignorespaces Illustration du probl\IeC {\`e}me au sommet $(q_0,s_0)$}}{66}{figure.6.8}}
\newlabel{fig:graphe-domaine}{{6.8}{66}{Application du théorème \ref {thm:calculNM}}{figure.6.8}{}}
\acronymused{BFS}
\@writefile{lof}{\contentsline {figure}{\numberline {Figure\nobreakspace  6.9}{\ignorespaces Application du th\IeC {\'e}or\IeC {\`e}me -- Transformation de $\ensuremath  {\mathcal  {S}}_\mathcal  {V}$ en son MDP $\mathcal  {M}_\mathcal  {V}$}}{67}{figure.6.9}}
\newlabel{fig:mdpProd}{{6.9}{67}{Application du théorème \ref {thm:calculNM}}{figure.6.9}{}}
\acronymused{MDP}
\acronymused{BFS}
\acronymused{BFS}
\acronymused{MDP}
\acronymused{BFS}
\@writefile{lot}{\contentsline {table}{\numberline {Tableau\nobreakspace  6.1}{\ignorespaces Probabilit\IeC {\'e}s du langage $abc\ensuremath  {^{\omega }}$ dans les impl\IeC {\'e}mentations extr\IeC {\'e}males de $\mathcal  {M}_\mathcal  {V}$}}{68}{table.6.1}}
\newlabel{tab:impl}{{6.1}{68}{Application du théorème \ref {thm:calculNM}}{table.6.1}{}}
\@writefile{toc}{\contentsline {subsection}{\numberline {6.3.2}Bilan du calcul}{68}{subsection.6.3.2}}
\acronymused{IDTMC}
\@writefile{lot}{\contentsline {table}{\numberline {Tableau\nobreakspace  6.2}{\ignorespaces R\IeC {\'e}sultats de l'algorithme suivant le sous-ensemble de transitions modales choisi}}{68}{table.6.2}}
\newlabel{tab:total}{{6.2}{68}{Bilan du calcul}{table.6.2}{}}
\@writefile{toc}{\contentsline {subsection}{\numberline {6.3.3}Un autre exemple}{68}{subsection.6.3.3}}
\newlabel{fig:sched2}{{6.10a}{69}{Subfigure 6 6.10a}{subfigure.6.10.1}{}}
\newlabel{sub@fig:sched2}{{(a)}{a}{Subfigure 6 6.10a\relax }{subfigure.6.10.1}{}}
\newlabel{fig:idtmcSched2}{{6.10b}{69}{Subfigure 6 6.10b}{subfigure.6.10.2}{}}
\newlabel{sub@fig:idtmcSched2}{{(b)}{b}{Subfigure 6 6.10b\relax }{subfigure.6.10.2}{}}
\@writefile{lof}{\contentsline {figure}{\numberline {Figure\nobreakspace  6.10}{\ignorespaces Application des \IeC {\'e}tapes du th\IeC {\'e}or\IeC {\`e}me -- cas d'un ordonnanceur de m\IeC {\'e}moire 2}}{69}{figure.6.10}}
\newlabel{subfig:sched2}{{6.10}{69}{Un autre exemple}{figure.6.10}{}}
\@writefile{lof}{\contentsline {subfigure}{\numberline{(a)}{\ignorespaces {Syst\IeC {\`e}me de transitions de modes d'un ordonnanceur \IeC {\`a} m\IeC {\'e}moire finie $\mathcal {A}_{2,\theta _2}$}}}{69}{subfigure.10.1}}
\@writefile{lof}{\contentsline {subfigure}{\numberline{(b)}{\ignorespaces {Premi\IeC {\`e}re \IeC {\'e}tape de l'ordonnancement -- $\ensuremath {\mathcal {S}}_2\times \mathcal {A}_{2,\theta _2}$}}}{69}{subfigure.10.2}}
\@writefile{lot}{\contentsline {table}{\numberline {Tableau\nobreakspace  6.3}{\ignorespaces R\IeC {\'e}sultats suivant le sous-ensemble de transitions modales choisi, pour $\mathcal  {A}_{2,\theta _2}$}}{70}{table.6.3}}
\newlabel{tab:sched2}{{6.3}{70}{Un autre exemple}{table.6.3}{}}
\@writefile{toc}{\contentsline {section}{\numberline {6.4}Un raffinement}{71}{section.6.4}}
\acronymused{IDTMC}
\acronymused{IDTMC}
\@writefile{lof}{\contentsline {figure}{\numberline {Figure\nobreakspace  6.11}{\ignorespaces Un raffinement $\ensuremath  {\mathcal  {S}}_1$ du syst\IeC {\`e}me pr\IeC {\'e}c\IeC {\'e}dent}}{72}{figure.6.11}}
\newlabel{fig:spec1}{{6.11}{72}{Un raffinement}{figure.6.11}{}}
\@writefile{toc}{\contentsline {subsection}{\numberline {6.4.1}Calcul d'opacit\IeC {\'e} lib\IeC {\'e}rale}{73}{subsection.6.4.1}}
\newlabel{sec:oplib}{{6.4.1}{73}{Calcul d'opacité libérale}{subsection.6.4.1}{}}
\@writefile{toc}{\contentsline {subsection}{\numberline {6.4.2}Calcul d'opacit\IeC {\'e} restrictive}{74}{subsection.6.4.2}}
\newlabel{sec:opres}{{6.4.2}{74}{Calcul d'opacité restrictive}{subsection.6.4.2}{}}
\acronymused{PTS}
\acronymused{PTS}
\@writefile{lof}{\contentsline {figure}{\numberline {Figure\nobreakspace  6.12}{\ignorespaces Ordonnancement sans-m\IeC {\'e}moire quelconque de $\ensuremath  {\mathcal  {S}}_1$}}{75}{figure.6.12}}
\newlabel{fig:ordSM}{{6.12}{75}{Calcul d'opacité restrictive}{figure.6.12}{}}
\@writefile{lot}{\contentsline {table}{\numberline {Tableau\nobreakspace  6.4}{\ignorespaces Probabilit\IeC {\'e}s n\IeC {\'e}cessaires au calcul de l'opacit\IeC {\'e} restrictive}}{75}{table.6.4}}
\newlabel{tab:prob}{{6.4}{75}{Calcul d'opacité restrictive}{table.6.4}{}}
\@writefile{lof}{\contentsline {figure}{\numberline {Figure\nobreakspace  6.13}{\ignorespaces Graphe de la fonction $f$}}{76}{figure.6.13}}
\newlabel{fig:trace}{{6.13}{76}{Calcul d'opacité restrictive}{figure.6.13}{}}
\@setckpt{7-Theme2}{
\setcounter{page}{78}
\setcounter{equation}{0}
\setcounter{enumi}{4}
\setcounter{enumii}{0}
\setcounter{enumiii}{0}
\setcounter{enumiv}{0}
\setcounter{footnote}{0}
\setcounter{mpfootnote}{0}
\setcounter{part}{0}
\setcounter{chapter}{6}
\setcounter{section}{4}
\setcounter{subsection}{2}
\setcounter{subsubsection}{0}
\setcounter{paragraph}{0}
\setcounter{subparagraph}{0}
\setcounter{figure}{13}
\setcounter{table}{4}
\setcounter{NAT@ctr}{0}
\setcounter{parentequation}{0}
\setcounter{LT@tables}{2}
\setcounter{LT@chunks}{1}
\setcounter{AlgoLine}{10}
\setcounter{algocfline}{5}
\setcounter{algocfproc}{5}
\setcounter{algocf}{5}
\setcounter{Item}{7}
\setcounter{Hfootnote}{0}
\setcounter{bookmark@seq@number}{59}
\setcounter{ContinuedFloat}{0}
\setcounter{KVtest}{2}
\setcounter{subfigure}{0}
\setcounter{subfigure@save}{2}
\setcounter{lofdepth}{1}
\setcounter{subtable}{0}
\setcounter{subtable@save}{0}
\setcounter{lotdepth}{1}
\setcounter{mydef}{25}
\setcounter{coro}{3}
\setcounter{prop}{10}
\setcounter{mylem}{1}
\setcounter{mythm}{6}
\setcounter{section@level}{2}
}
