\relax 
\providecommand\hyper@newdestlabel[2]{}
\@writefile{toc}{\contentsline {chapter}{\numberline {4}TH\IeC {\'E}ORIE DES SP\IeC {\'E}CIFICATIONS}{25}{chapter.4}}
\newlabel{sec:Theme1}{{4}{25}{THÉORIE DES SPÉCIFICATIONS}{chapter.4}{}}
\acronymused{IDTMC}
\acronymused{PTS}
\acronymused{IDTMC}
\acronymused{IDTMC}
\@writefile{toc}{\contentsline {section}{\numberline {4.1}IDTMC}{25}{section.4.1}}
\newlabel{ssec:raff}{{4.1}{25}{IDTMC}{section.4.1}{}}
\acronymused{PTS}
\acronymused{IDTMC}
\acronymused{IDTMC}
\citation{JonssonL91}
\acronymused{IDTMC}
\acronymused{MC}
\acronymused{PTS}
\acronymused{IDTMC}
\acronymused{IDTMC}
\acronymused{IDTMC}
\acronymused{LTS}
\acronymused{IDTMC}
\@writefile{lof}{\contentsline {figure}{\numberline {Figure\nobreakspace  4.1}{\ignorespaces Exemple d'IDTMC}}{26}{figure.4.1}}
\newlabel{exIDTMC}{{4.1}{26}{}{figure.4.1}{}}
\citation{Delahaye2011}
\@writefile{toc}{\contentsline {section}{\numberline {4.2}Raffinement fort et faible}{27}{section.4.2}}
\newlabel{sec:raffinement}{{4.2}{27}{Raffinement fort et faible}{section.4.2}{}}
\acronymused{IDTMC}
\newlabel{thm:fort}{{3}{27}{}{prop.3}{}}
\newlabel{fig:auth2}{{4.2a}{28}{Subfigure 4 4.2a}{subfigure.4.2.1}{}}
\newlabel{sub@fig:auth2}{{(a)}{a}{Subfigure 4 4.2a\relax }{subfigure.4.2.1}{}}
\newlabel{fig:auth1}{{4.2b}{28}{Subfigure 4 4.2b}{subfigure.4.2.2}{}}
\newlabel{sub@fig:auth1}{{(b)}{b}{Subfigure 4 4.2b\relax }{subfigure.4.2.2}{}}
\@writefile{lof}{\contentsline {figure}{\numberline {Figure\nobreakspace  4.2}{\ignorespaces $\ensuremath  {\mathcal  {S}}_1$ raffine faiblement mais non fortement $\ensuremath  {\mathcal  {S}}_2$}}{28}{figure.4.2}}
\newlabel{fig:cex-raff}{{4.2}{28}{}{figure.4.2}{}}
\@writefile{lof}{\contentsline {subfigure}{\numberline{(a)}{\ignorespaces {$\ensuremath {\mathcal {S}}_1$}}}{28}{subfigure.2.1}}
\@writefile{lof}{\contentsline {subfigure}{\numberline{(b)}{\ignorespaces {$\ensuremath {\mathcal {S}}_2$}}}{28}{subfigure.2.2}}
\@writefile{toc}{\contentsline {section}{\numberline {4.3}Impl\IeC {\'e}mentation et raffinement complet}{28}{section.4.3}}
\newlabel{sec:impl}{{4.3}{28}{Implémentation et raffinement complet}{section.4.3}{}}
\acronymused{PTS}
\acronymused{IDTMC}
\acronymused{PTS}
\acronymused{IDTMC}
\acronymused{PTS}
\acronymused{PTS}
\acronymused{PTS}
\acronymused{IDTMC}
\acronymused{PTS}
\acronymused{IDTMC}
\acronymused{PTS}
\acronymused{IDTMC}
\citation{Delahaye2011}
\acronymused{IDTMC}
\acronymused{IDTMC}
\newlabel{thm:complet}{{4}{29}{}{prop.4}{}}
\acronymused{IDTMC}
\newlabel{fig:auth2}{{4.3a}{29}{Subfigure 4 4.3a}{subfigure.4.3.1}{}}
\newlabel{sub@fig:auth2}{{(a)}{a}{Subfigure 4 4.3a\relax }{subfigure.4.3.1}{}}
\newlabel{fig:auth1}{{4.3b}{29}{Subfigure 4 4.3b}{subfigure.4.3.2}{}}
\newlabel{sub@fig:auth1}{{(b)}{b}{Subfigure 4 4.3b\relax }{subfigure.4.3.2}{}}
\@writefile{lof}{\contentsline {figure}{\numberline {Figure\nobreakspace  4.3}{\ignorespaces $\mathit  {imp}(\ensuremath  {\mathcal  {S}}_1)\subseteq \mathit  {imp}(\ensuremath  {\mathcal  {S}}_2)$ mais $\ensuremath  {\mathcal  {S}}_1$ ne raffine pas faiblement $\ensuremath  {\mathcal  {S}}_2$}}{29}{figure.4.3}}
\newlabel{fig:cex-complet}{{4.3}{29}{}{figure.4.3}{}}
\@writefile{lof}{\contentsline {subfigure}{\numberline{(a)}{\ignorespaces {$\ensuremath {\mathcal {S}}_1$}}}{29}{subfigure.3.1}}
\@writefile{lof}{\contentsline {subfigure}{\numberline{(b)}{\ignorespaces {$\ensuremath {\mathcal {S}}_2$}}}{29}{subfigure.3.2}}
\acronymused{IDTMC}
\newlabel{prop:raffs}{{5}{30}{}{prop.5}{}}
\acronymused{IDTMC}
\acronymused{IDTMC}
\acronymused{PTS}
\newlabel{prop:raffPTS}{{6}{30}{Raffinement par un \ac {PTS}}{prop.6}{}}
\acronymused{PTS}
\acronymused{PTS}
\acronymused{IDTMC}
\acronymused{IDTMC}
\acronymused{PTS}
\acronymused{IDTMC}
\acronymused{IDTMC}
\acronymused{PTS}
\acronymused{PTS}
\acronymused{PTS}
\citation{Baier05}
\acronymused{PTS}
\acronymused{IDTMC}
\newlabel{prop:bisim}{{7}{31}{}{prop.7}{}}
\acronymused{PTS}
\acronymused{IDTMC}
\@writefile{toc}{\contentsline {section}{\numberline {4.4}Langages dans les \ac {IDTMC}}{31}{section.4.4}}
\newlabel{sec:langage}{{4.4}{31}{Langages dans les \ac {IDTMC}}{section.4.4}{}}
\acronymused{IDTMC}
\acronymused{IDTMC}
\acronymused{IDTMC}
\acronymused{PTS}
\newlabel{impl1}{{4.4a}{31}{Subfigure 4 4.4a}{subfigure.4.4.1}{}}
\newlabel{sub@impl1}{{(a)}{a}{Subfigure 4 4.4a\relax }{subfigure.4.4.1}{}}
\newlabel{impl2}{{4.4b}{31}{Subfigure 4 4.4b}{subfigure.4.4.2}{}}
\newlabel{sub@impl2}{{(b)}{b}{Subfigure 4 4.4b\relax }{subfigure.4.4.2}{}}
\@writefile{lof}{\contentsline {figure}{\numberline {Figure\nobreakspace  4.4}{\ignorespaces Deux impl\IeC {\'e}mentations de l'exemple de la figure \ref  {exIDTMC}}}{31}{figure.4.4}}
\newlabel{IDTMCimpl}{{4.4}{31}{Langages dans les \ac {IDTMC}}{figure.4.4}{}}
\@writefile{lof}{\contentsline {subfigure}{\numberline{(a)}{\ignorespaces {Premi\IeC {\`e}re impl\IeC {\'e}mentation}}}{31}{subfigure.4.1}}
\@writefile{lof}{\contentsline {subfigure}{\numberline{(b)}{\ignorespaces {Seconde impl\IeC {\'e}mentation}}}{31}{subfigure.4.2}}
\newlabel{prop:langage-unique}{{8}{31}{}{prop.8}{}}
\acronymused{IDTMC}
\citation{main}
\acronymused{IDTMC}
\acronymused{PTS}
\acronymused{PTS}
\acronymused{IDTMC}
\acronymused{PTS}
\acronymused{IDTMC}
\newlabel{def:langage}{{18}{33}{}{mydef.18}{}}
\acronymused{IDTMC}
\newlabel{prop:reg}{{9}{33}{}{prop.9}{}}
\acronymused{IDTMC}
\acronymused{IDTMC}
\acronymused{LTS}
\acronymused{LTS}
\acronymused{LTS}
\acronymused{LTS}
\acronymused{IDTMC}
\@writefile{toc}{\contentsline {section}{\numberline {4.5}Ordonnancement}{33}{section.4.5}}
\newlabel{sec:ord}{{4.5}{33}{Ordonnancement}{section.4.5}{}}
\acronymused{MDP}
\acronymused{IDTMC}
\acronymused{PTS}
\newlabel{def:ord}{{19}{33}{Ordonnanceur}{mydef.19}{}}
\acronymused{IDTMC}
\acronymused{IDTMC}
\acronymused{MDP}
\acronymused{PTS}
\newlabel{fig:exOrdSpec}{{4.5a}{35}{Subfigure 4 4.5a}{subfigure.4.5.1}{}}
\newlabel{sub@fig:exOrdSpec}{{(a)}{a}{Subfigure 4 4.5a\relax }{subfigure.4.5.1}{}}
\newlabel{fig:exOrdPts}{{4.5b}{35}{Subfigure 4 4.5b}{subfigure.4.5.2}{}}
\newlabel{sub@fig:exOrdPts}{{(b)}{b}{Subfigure 4 4.5b\relax }{subfigure.4.5.2}{}}
\@writefile{lof}{\contentsline {figure}{\numberline {Figure\nobreakspace  4.5}{\ignorespaces Exemple d'ordonnancement}}{35}{figure.4.5}}
\newlabel{exOrd}{{4.5}{35}{}{figure.4.5}{}}
\@writefile{lof}{\contentsline {subfigure}{\numberline{(a)}{\ignorespaces {Sp\IeC {\'e}cification \IeC {\`a} ordonnancer }}}{35}{subfigure.5.1}}
\@writefile{lof}{\contentsline {subfigure}{\numberline{(b)}{\ignorespaces {Impl\IeC {\'e}mentation ordonnanc\IeC {\'e}e }}}{35}{subfigure.5.2}}
\acronymused{PTS}
\acronymused{IDTMC}
\acronymused{PTS}
\acronymused{PTS}
\acronymused{IDTMC}
\newlabel{fig:satO-IMC}{{4.6a}{36}{Subfigure 4 4.6a}{subfigure.4.6.1}{}}
\newlabel{sub@fig:satO-IMC}{{(a)}{a}{Subfigure 4 4.6a\relax }{subfigure.4.6.1}{}}
\acronymused{PTS}
\newlabel{fig:satO-PTS}{{4.6b}{36}{Subfigure 4 4.6b}{subfigure.4.6.2}{}}
\newlabel{sub@fig:satO-PTS}{{(b)}{b}{Subfigure 4 4.6b\relax }{subfigure.4.6.2}{}}
\@writefile{lof}{\contentsline {figure}{\numberline {Figure\nobreakspace  4.6}{\ignorespaces Exemple d'impl\IeC {\'e}mentation non-ordonnanc\IeC {\'e}e d'une \ac {IDTMC}}}{36}{figure.4.6}}
\acronymused{IDTMC}
\newlabel{fig:satO}{{4.6}{36}{}{figure.4.6}{}}
\@writefile{lof}{\contentsline {subfigure}{\numberline{(a)}{\ignorespaces {Exemple d'\ac {IDTMC} $\ensuremath {\mathcal {S}}$}}}{36}{subfigure.6.1}}
\@writefile{lof}{\contentsline {subfigure}{\numberline{(b)}{\ignorespaces {\ac {PTS} non-ordonnanc\IeC {\'e} $\mathcal {A}$ de $\ensuremath {\mathcal {S}}$}}}{36}{subfigure.6.2}}
\acronymused{IDTMC}
\acronymused{PTS}
\acronymused{IDTMC}
\@writefile{toc}{\contentsline {section}{\numberline {4.6}Extension de l'opacit\IeC {\'e} lib\IeC {\'e}rale aux IDTMC}{37}{section.4.6}}
\newlabel{sec:ext}{{4.6}{37}{Extension de l'opacité libérale aux IDTMC}{section.4.6}{}}
\acronymused{IDTMC}
\acronymused{IDTMC}
\@setckpt{7-Theme1}{
\setcounter{page}{39}
\setcounter{equation}{0}
\setcounter{enumi}{4}
\setcounter{enumii}{0}
\setcounter{enumiii}{0}
\setcounter{enumiv}{0}
\setcounter{footnote}{0}
\setcounter{mpfootnote}{0}
\setcounter{part}{0}
\setcounter{chapter}{4}
\setcounter{section}{6}
\setcounter{subsection}{0}
\setcounter{subsubsection}{0}
\setcounter{paragraph}{0}
\setcounter{subparagraph}{0}
\setcounter{figure}{6}
\setcounter{table}{0}
\setcounter{NAT@ctr}{0}
\setcounter{parentequation}{0}
\setcounter{LT@tables}{2}
\setcounter{LT@chunks}{1}
\setcounter{AlgoLine}{0}
\setcounter{algocfline}{0}
\setcounter{algocfproc}{0}
\setcounter{algocf}{0}
\setcounter{Item}{7}
\setcounter{Hfootnote}{0}
\setcounter{bookmark@seq@number}{32}
\setcounter{ContinuedFloat}{0}
\setcounter{KVtest}{2}
\setcounter{subfigure}{0}
\setcounter{subfigure@save}{2}
\setcounter{lofdepth}{1}
\setcounter{subtable}{0}
\setcounter{subtable@save}{0}
\setcounter{lotdepth}{1}
\setcounter{mydef}{21}
\setcounter{coro}{0}
\setcounter{prop}{9}
\setcounter{mylem}{0}
\setcounter{mythm}{1}
\setcounter{section@level}{1}
}
