\relax 
\providecommand\hyper@newdestlabel[2]{}
\@writefile{toc}{\contentsline {chapter}{\numberline {5}TROISI\IeC {\`E}ME TH\IeC {\`E}ME AVEC UN TITRE TR\IeC {\`E}S LONG QUI S'\IeC {\'E}TEND SUR DEUX LIGNES}{9}{chapter.5}}
\newlabel{sec:Theme3}{{5}{9}{TROISIÈME THÈME AVEC UN TITRE TRÈS LONG QUI S'ÉTEND SUR DEUX LIGNES}{chapter.5}{}}
\@setckpt{7-Theme3}{
\setcounter{page}{11}
\setcounter{equation}{0}
\setcounter{enumi}{2}
\setcounter{enumii}{0}
\setcounter{enumiii}{0}
\setcounter{enumiv}{0}
\setcounter{footnote}{0}
\setcounter{mpfootnote}{0}
\setcounter{part}{0}
\setcounter{chapter}{5}
\setcounter{section}{0}
\setcounter{subsection}{0}
\setcounter{subsubsection}{0}
\setcounter{paragraph}{0}
\setcounter{subparagraph}{0}
\setcounter{figure}{0}
\setcounter{table}{0}
\setcounter{NAT@ctr}{0}
\setcounter{parentequation}{0}
\setcounter{LT@tables}{1}
\setcounter{LT@chunks}{1}
\setcounter{Item}{2}
\setcounter{Hfootnote}{1}
\setcounter{bookmark@seq@number}{21}
\setcounter{ContinuedFloat}{0}
\setcounter{section@level}{4}
}
