\relax 
\providecommand\hyper@newdestlabel[2]{}
\@writefile{toc}{\contentsline {chapter}{\numberline {7}CONCLUSION}{78}{chapter.7}}
\newlabel{sec:Conclusion}{{7}{78}{CONCLUSION}{chapter.7}{}}
\@writefile{toc}{\contentsline {section}{\numberline {7.1}Synth\IeC {\`e}se des travaux}{78}{section.7.1}}
\acronymused{IDTMC}
\acronymused{PTS}
\acronymused{PTS}
\acronymused{IDTMC}
\acronymused{IDTMC}
\acronymused{IDTMC}
\acronymused{IDTMC}
\@writefile{toc}{\contentsline {section}{\numberline {7.2}Limitations de la solution propos\IeC {\'e}e}{79}{section.7.2}}
\newlabel{sec:Limitations}{{7.2}{79}{Limitations de la solution proposée}{section.7.2}{}}
\acronymused{PTS}
\citation{Berard2014-rifp}
\citation{Mantel2000,Mantel2001}
\@writefile{toc}{\contentsline {section}{\numberline {7.3}Am\IeC {\'e}liorations futures}{80}{section.7.3}}
\acronymused{RIFP}
\acronymused{BSP}
\acronymused{RIFP}
\acronymused{IDTMC}
\acronymused{CMC}
\acronymused{IDTMC}
\acronymused{CMC}
\@setckpt{8-Conclusion}{
\setcounter{page}{81}
\setcounter{equation}{0}
\setcounter{enumi}{4}
\setcounter{enumii}{0}
\setcounter{enumiii}{0}
\setcounter{enumiv}{0}
\setcounter{footnote}{0}
\setcounter{mpfootnote}{0}
\setcounter{part}{0}
\setcounter{chapter}{7}
\setcounter{section}{3}
\setcounter{subsection}{0}
\setcounter{subsubsection}{0}
\setcounter{paragraph}{0}
\setcounter{subparagraph}{0}
\setcounter{figure}{0}
\setcounter{table}{0}
\setcounter{NAT@ctr}{0}
\setcounter{parentequation}{0}
\setcounter{LT@tables}{2}
\setcounter{LT@chunks}{1}
\setcounter{AlgoLine}{10}
\setcounter{algocfline}{5}
\setcounter{algocfproc}{5}
\setcounter{algocf}{5}
\setcounter{Item}{7}
\setcounter{Hfootnote}{0}
\setcounter{bookmark@seq@number}{63}
\setcounter{ContinuedFloat}{0}
\setcounter{KVtest}{2}
\setcounter{subfigure}{0}
\setcounter{subfigure@save}{2}
\setcounter{lofdepth}{1}
\setcounter{subtable}{0}
\setcounter{subtable@save}{0}
\setcounter{lotdepth}{1}
\setcounter{mydef}{25}
\setcounter{coro}{3}
\setcounter{prop}{10}
\setcounter{mylem}{1}
\setcounter{mythm}{6}
\setcounter{section@level}{1}
}
