\relax 
\providecommand\hyper@newdestlabel[2]{}
\@writefile{toc}{\contentsline {compteur}{ANNEXES}{27}{chapter*.26}}
\@writefile{app}{\contentsline {annexe}{\numberline {Annexe\nobreakspace  A}D\IeC {\'E}MO}{27}{appendix.A}}
\@writefile{app}{\contentsline {annexe}{\numberline {Annexe\nobreakspace  B}ENCORE UNE ANNEXE}{28}{appendix.B}}
\@writefile{app}{\contentsline {annexe}{\numberline {Annexe\nobreakspace  C}UNE DERNI\IeC {\`E}RE ANNEXE}{29}{appendix.C}}
\@setckpt{9-Annexes}{
\setcounter{page}{30}
\setcounter{equation}{0}
\setcounter{enumi}{0}
\setcounter{enumii}{0}
\setcounter{enumiii}{0}
\setcounter{enumiv}{0}
\setcounter{footnote}{0}
\setcounter{mpfootnote}{0}
\setcounter{part}{0}
\setcounter{chapter}{3}
\setcounter{section}{0}
\setcounter{subsection}{0}
\setcounter{subsubsection}{0}
\setcounter{paragraph}{0}
\setcounter{subparagraph}{0}
\setcounter{figure}{0}
\setcounter{table}{0}
\setcounter{NAT@ctr}{24}
\setcounter{parentequation}{0}
\setcounter{LT@tables}{1}
\setcounter{LT@chunks}{1}
\setcounter{Item}{0}
\setcounter{Hfootnote}{0}
\setcounter{bookmark@seq@number}{32}
\setcounter{ContinuedFloat}{0}
\setcounter{mydef}{18}
\setcounter{myex}{0}
\setcounter{prop}{4}
\setcounter{mylem}{0}
\setcounter{mythm}{1}
\setcounter{section@level}{1}
}
