\relax 
\providecommand\hyper@newdestlabel[2]{}
\catcode `:\active 
\catcode `;\active 
\catcode `!\active 
\catcode `?\active 
\AC@reset@newl@bel
\providecommand\HyperFirstAtBeginDocument{\AtBeginDocument}
\HyperFirstAtBeginDocument{\ifx\hyper@anchor\@undefined
\global\let\oldcontentsline\contentsline
\gdef\contentsline#1#2#3#4{\oldcontentsline{#1}{#2}{#3}}
\global\let\oldnewlabel\newlabel
\gdef\newlabel#1#2{\newlabelxx{#1}#2}
\gdef\newlabelxx#1#2#3#4#5#6{\oldnewlabel{#1}{{#2}{#3}}}
\AtEndDocument{\ifx\hyper@anchor\@undefined
\let\contentsline\oldcontentsline
\let\newlabel\oldnewlabel
\fi}
\fi}
\global\let\hyper@last\relax 
\gdef\HyperFirstAtBeginDocument#1{#1}
\providecommand\HyField@AuxAddToFields[1]{}
\providecommand\HyField@AuxAddToCoFields[2]{}
\select@language{french}
\@writefile{toc}{\select@language{french}}
\@writefile{lof}{\select@language{french}}
\@writefile{lot}{\select@language{french}}
\@input{1-Dedicace.aux}
\@input{2-Remerciements.aux}
\@input{3-Resume_sujet.aux}
\@input{3-Abstract.aux}
\@writefile{toc}{\contentsline {compteur}{TABLE DES MATI\IeC {\`E}RES}{ix}{chapter*.5}}
\acronymused{IDTMC}
\AC@undonewlabel{acro:BFS}
\newlabel{acro:BFS}{{}{x}{\contentsname \@mkboth {\MakeUppercase \contentsname }{\MakeUppercase \contentsname }}{chapter*.5}{}}
\acronymused{BFS}
\@writefile{toc}{\contentsline {compteur}{LISTE DES TABLEAUX}{xii}{chapter*.6}}
\@writefile{toc}{\contentsline {compteur}{LISTE DES FIGURES}{xiii}{chapter*.7}}
\acronymused{IDTMC}
\AC@undonewlabel{acro:DPA}
\newlabel{acro:DPA}{{}{xiii}{\listfigurename }{chapter*.7}{}}
\acronymused{DPA}
\@input{4-Sigles_Abrev.aux}
\@input{5-Introduction.aux}
\@input{6-Revue_litterature.aux}
\@input{7-Preliminaires.aux}
\@input{7-Theme1.aux}
\@input{7-Resultats.aux}
\@input{7-Theme2.aux}
\@input{8-Conclusion.aux}
\bibdata{Document}
\bibcite{Abadi1991}{{1}{1991}{{Abadi et Lamport}}{{}}}
\bibcite{BaierKatoen2008}{{2}{2008}{{Baier et Katoen}}{{}}}
\bibcite{Baier05}{{3}{2005}{{Baier \emph  {et~al.}}}{{Baier, Katoen, Hermanns, et Wolf}}}
\bibcite{BerardCS15}{{4}{2015{a}}{{B{\'{e}}rard \emph  {et~al.}}}{{B{\'{e}}rard, Chatterjee, et Sznajder}}}
\bibcite{main}{{5}{2015{b}}{{B{\'{e}}rard \emph  {et~al.}}}{{B{\'{e}}rard, Kouchnarenko, Mullins, et Sassolas}}}
\bibcite{Berard2014-rifp}{{6}{2014}{{B{\'{e}}rard et Mullins}}{{}}}
\bibcite{BMS15}{{7}{2015{c}}{{B{\'{e}}rard \emph  {et~al.}}}{{B{\'{e}}rard, Mullins, et Sassolas}}}
\bibcite{Biondi14}{{8}{2014}{{Biondi \emph  {et~al.}}}{{Biondi, Legay, Nielsen, et Wasowski}}}
\bibcite{Koutny08}{{9}{2008}{{Bryans \emph  {et~al.}}}{{Bryans, Koutny, Mazar{\'{e}}, et Ryan}}}
\bibcite{BryansKR04}{{10}{2004}{{Bryans \emph  {et~al.}}}{{Bryans, Koutny, et Ryan}}}
\bibcite{BryansKR05}{{11}{2005}{{Bryans \emph  {et~al.}}}{{Bryans, Koutny, et Ryan}}}
\@writefile{toc}{\contentsline {compteur}{R\IeC {\'E}F\IeC {\'E}RENCES}{81}{chapter*.19}}
\bibcite{Buchi62}{{12}{1962}{{B{\"u}chi}}{{}}}
\bibcite{ChatterjeeQIF11}{{13}{2011}{{Cern{\'{y}} \emph  {et~al.}}}{{Cern{\'{y}}, Chatterjee, et Henzinger}}}
\bibcite{Chatterjee08}{{14}{2008}{{Chatterjee \emph  {et~al.}}}{{Chatterjee, Sen, et Henzinger}}}
\bibcite{Clarkson10}{{15}{2010}{{Clarkson et Schneider}}{{}}}
\bibcite{Delahaye2011}{{16}{2011}{{Delahaye \emph  {et~al.}}}{{Delahaye, Larsen, Legay, Pedersen, et W{\k {a}}sowski}}}
\bibcite{Delahaye2012}{{17}{2012}{{Delahaye \emph  {et~al.}}}{{Delahaye, Larsen, Legay, Pedersen, et Wasowski}}}
\bibcite{GoguenM82}{{18}{1982}{{Goguen et Meseguer}}{{}}}
\bibcite{JonssonL91}{{19}{1991}{{Jonsson et Larsen}}{{}}}
\bibcite{Lin2011}{{20}{2011}{{Lin}}{{}}}
\bibcite{Mantel2000}{{21}{2000}{{Mantel}}{{}}}
\bibcite{Mantel2001}{{22}{2001}{{Mantel}}{{}}}
\bibcite{Mazare04Op}{{23}{2004}{{Mazar{\'e}}}{{}}}
\bibcite{Mullins14}{{24}{2014}{{Mullins et Yeddes}}{{}}}
\bibcite{Piterman07}{{25}{2007}{{Piterman}}{{}}}
\bibcite{Rushby92}{{26}{1992}{{Rushby}}{{}}}
\bibcite{Saboori2014}{{27}{2014}{{Saboori et Hadjicostis}}{{}}}
\bibcite{Sassolas2011}{{28}{2011}{{Sassolas}}{{}}}
\bibcite{Shannon48}{{29}{1948}{{Shannon}}{{}}}
\bibcite{Smith09}{{30}{2009}{{Smith}}{{}}}
\bibcite{Sutherland1986}{{31}{1986}{{Sutherland}}{{}}}
\bibstyle{plainnat-fr}
