\relax 
\providecommand\hyper@newdestlabel[2]{}
\catcode `:\active 
\catcode `;\active 
\catcode `!\active 
\catcode `?\active 
\providecommand\HyperFirstAtBeginDocument{\AtBeginDocument}
\HyperFirstAtBeginDocument{\ifx\hyper@anchor\@undefined
\global\let\oldcontentsline\contentsline
\gdef\contentsline#1#2#3#4{\oldcontentsline{#1}{#2}{#3}}
\global\let\oldnewlabel\newlabel
\gdef\newlabel#1#2{\newlabelxx{#1}#2}
\gdef\newlabelxx#1#2#3#4#5#6{\oldnewlabel{#1}{{#2}{#3}}}
\AtEndDocument{\ifx\hyper@anchor\@undefined
\let\contentsline\oldcontentsline
\let\newlabel\oldnewlabel
\fi}
\fi}
\global\let\hyper@last\relax 
\gdef\HyperFirstAtBeginDocument#1{#1}
\providecommand\HyField@AuxAddToFields[1]{}
\providecommand\HyField@AuxAddToCoFields[2]{}
\select@language{french}
\@writefile{toc}{\select@language{french}}
\@writefile{lof}{\select@language{french}}
\@writefile{lot}{\select@language{french}}
\@writefile{lof}{\contentsline {figure}{\numberline {1}{\ignorespaces IMC where the choice on modal edge requires history.}}{1}{figure.1}}
\newlabel{fig}{{1}{1}{IMC where the choice on modal edge requires history}{figure.1}{}}
\@writefile{lof}{\contentsline {figure}{\numberline {2}{\ignorespaces DPA reconnaissant $\varphi $}}{1}{figure.2}}
\newlabel{auto}{{2}{1}{DPA reconnaissant $\varphi $}{figure.2}{}}
\@writefile{lof}{\contentsline {figure}{\numberline {3}{\ignorespaces Produit synchronis\IeC {\'e} $\ensuremath  {\mathcal  {S}}_\mathcal  {V}$}}{2}{figure.3}}
\newlabel{prod}{{3}{2}{Produit synchronisé $\Spec _\mathcal {V}$}{figure.3}{}}
\@writefile{lof}{\contentsline {figure}{\numberline {4}{\ignorespaces MDP}}{3}{figure.4}}
\newlabel{mdp}{{4}{3}{MDP}{figure.4}{}}
