\relax 
\providecommand\hyper@newdestlabel[2]{}
\providecommand\HyperFirstAtBeginDocument{\AtBeginDocument}
\HyperFirstAtBeginDocument{\ifx\hyper@anchor\@undefined
\global\let\oldcontentsline\contentsline
\gdef\contentsline#1#2#3#4{\oldcontentsline{#1}{#2}{#3}}
\global\let\oldnewlabel\newlabel
\gdef\newlabel#1#2{\newlabelxx{#1}#2}
\gdef\newlabelxx#1#2#3#4#5#6{\oldnewlabel{#1}{{#2}{#3}}}
\AtEndDocument{\ifx\hyper@anchor\@undefined
\let\contentsline\oldcontentsline
\let\newlabel\oldnewlabel
\fi}
\fi}
\global\let\hyper@last\relax 
\gdef\HyperFirstAtBeginDocument#1{#1}
\providecommand\HyField@AuxAddToFields[1]{}
\providecommand\HyField@AuxAddToCoFields[2]{}
\catcode `:\active 
\catcode `;\active 
\catcode `!\active 
\catcode `?\active 
\@writefile{toc}{\beamer@endinputifotherversion {3.36pt}}
\@writefile{nav}{\beamer@endinputifotherversion {3.36pt}}
\select@language{french}
\@writefile{toc}{\select@language{french}}
\@writefile{lof}{\select@language{french}}
\@writefile{lot}{\select@language{french}}
\@writefile{nav}{\headcommand {\slideentry {0}{0}{1}{1/1}{}{0}}}
\@writefile{nav}{\headcommand {\beamer@framepages {1}{1}}}
\@writefile{nav}{\headcommand {\slideentry {0}{0}{2}{2/2}{}{0}}}
\@writefile{nav}{\headcommand {\beamer@framepages {2}{2}}}
\@writefile{nav}{\headcommand {\slideentry {0}{0}{3}{3/3}{}{0}}}
\@writefile{nav}{\headcommand {\beamer@framepages {3}{3}}}
\@writefile{nav}{\headcommand {\slideentry {0}{0}{4}{4/4}{}{0}}}
\@writefile{nav}{\headcommand {\beamer@framepages {4}{4}}}
\@writefile{toc}{\beamer@sectionintoc {1}{Cadre th\IeC {\'e}orique}{5}{0}{1}}
\@writefile{nav}{\headcommand {\sectionentry {1}{Cadre th\IeC {\'e}orique}{5}{Cadre th\IeC {\'e}orique}{0}}}
\@writefile{nav}{\headcommand {\beamer@sectionpages {1}{4}}}
\@writefile{nav}{\headcommand {\beamer@subsectionpages {1}{4}}}
\@writefile{nav}{\headcommand {\slideentry {1}{0}{1}{5/5}{}{0}}}
\@writefile{nav}{\headcommand {\beamer@framepages {5}{5}}}
\newlabel{cadre}{{1}{6}{Cadre théorique}{Doc-Start}{}}
\@writefile{snm}{\beamer@slide {cadre}{6}}
\@writefile{nav}{\headcommand {\slideentry {1}{0}{2}{6/6}{}{0}}}
\@writefile{nav}{\headcommand {\beamer@framepages {6}{6}}}
\newlabel{fig:auth}{{3}{7}{Cadre théorique}{Doc-Start}{}}
\@writefile{snm}{\beamer@slide {fig:auth}{7}}
\@writefile{nav}{\headcommand {\slideentry {1}{0}{3}{7/7}{}{0}}}
\@writefile{nav}{\headcommand {\beamer@framepages {7}{7}}}
\newlabel{fig:auth}{{4}{8}{Cadre théorique}{Doc-Start}{}}
\@writefile{snm}{\beamer@slide {fig:auth}{8}}
\@writefile{nav}{\headcommand {\slideentry {1}{0}{4}{8/8}{}{0}}}
\@writefile{nav}{\headcommand {\beamer@framepages {8}{8}}}
\newlabel{fig:eximpl}{{5}{9}{Cadre théorique}{Doc-Start}{}}
\@writefile{snm}{\beamer@slide {fig:eximpl}{9}}
\@writefile{nav}{\headcommand {\slideentry {1}{0}{5}{9/9}{}{0}}}
\@writefile{nav}{\headcommand {\beamer@framepages {9}{9}}}
\newlabel{fig:ord}{{6}{10}{Cadre théorique}{Doc-Start}{}}
\@writefile{snm}{\beamer@slide {fig:ord}{10}}
\@writefile{nav}{\headcommand {\slideentry {1}{0}{6}{10/10}{}{0}}}
\@writefile{nav}{\headcommand {\beamer@framepages {10}{10}}}
\newlabel{fig:ord}{{7}{11}{Cadre théorique}{Doc-Start}{}}
\@writefile{snm}{\beamer@slide {fig:ord}{11}}
\@writefile{nav}{\headcommand {\slideentry {1}{0}{7}{11/11}{}{0}}}
\@writefile{nav}{\headcommand {\beamer@framepages {11}{11}}}
\@writefile{toc}{\beamer@sectionintoc {2}{Algorithme de calcul d'opacit\IeC {\'e}}{12}{0}{2}}
\@writefile{nav}{\headcommand {\sectionentry {2}{Algorithme de calcul d'opacit\IeC {\'e}}{12}{Algorithme de calcul d'opacit\IeC {\'e}}{0}}}
\@writefile{nav}{\headcommand {\beamer@sectionpages {5}{11}}}
\@writefile{nav}{\headcommand {\beamer@subsectionpages {5}{11}}}
\@writefile{nav}{\headcommand {\slideentry {2}{0}{1}{12/12}{}{0}}}
\@writefile{nav}{\headcommand {\beamer@framepages {12}{12}}}
\newlabel{algo}{{2}{13}{Algorithme de calcul d'opacité}{Doc-Start}{}}
\@writefile{snm}{\beamer@slide {algo}{13}}
\@writefile{nav}{\headcommand {\slideentry {2}{0}{2}{13/13}{}{0}}}
\@writefile{nav}{\headcommand {\beamer@framepages {13}{13}}}
\newlabel{fig:auth}{{9}{14}{Algorithme de calcul d'opacité}{Doc-Start}{}}
\@writefile{snm}{\beamer@slide {fig:auth}{14}}
\@writefile{nav}{\headcommand {\slideentry {2}{0}{3}{14/14}{}{0}}}
\@writefile{nav}{\headcommand {\beamer@framepages {14}{14}}}
\@writefile{nav}{\headcommand {\slideentry {2}{0}{4}{15/15}{}{0}}}
\@writefile{nav}{\headcommand {\beamer@framepages {15}{15}}}
\@writefile{nav}{\headcommand {\slideentry {2}{0}{5}{16/16}{}{0}}}
\@writefile{nav}{\headcommand {\beamer@framepages {16}{16}}}
\@writefile{nav}{\headcommand {\slideentry {2}{0}{6}{17/17}{}{0}}}
\@writefile{nav}{\headcommand {\beamer@framepages {17}{17}}}
\newlabel{fig:auth}{{11}{18}{Algorithme de calcul d'opacité}{Doc-Start}{}}
\@writefile{snm}{\beamer@slide {fig:auth}{18}}
\@writefile{nav}{\headcommand {\slideentry {2}{0}{7}{18/18}{}{0}}}
\@writefile{nav}{\headcommand {\beamer@framepages {18}{18}}}
\newlabel{fig:auth}{{12}{19}{Algorithme de calcul d'opacité}{Doc-Start}{}}
\@writefile{snm}{\beamer@slide {fig:auth}{19}}
\@writefile{nav}{\headcommand {\slideentry {2}{0}{8}{19/19}{}{0}}}
\@writefile{nav}{\headcommand {\beamer@framepages {19}{19}}}
\newlabel{fig:dpa}{{13}{20}{Algorithme de calcul d'opacité}{Doc-Start}{}}
\@writefile{snm}{\beamer@slide {fig:dpa}{20}}
\@writefile{nav}{\headcommand {\slideentry {2}{0}{9}{20/20}{}{0}}}
\@writefile{nav}{\headcommand {\beamer@framepages {20}{20}}}
\newlabel{fig:idtmcProd}{{14}{21}{Algorithme de calcul d'opacité}{Doc-Start}{}}
\@writefile{snm}{\beamer@slide {fig:idtmcProd}{21}}
\@writefile{nav}{\headcommand {\slideentry {2}{0}{10}{21/21}{}{0}}}
\@writefile{nav}{\headcommand {\beamer@framepages {21}{21}}}
\@writefile{nav}{\headcommand {\slideentry {2}{0}{11}{22/22}{}{0}}}
\@writefile{nav}{\headcommand {\beamer@framepages {22}{22}}}
\newlabel{fig:mdpProd}{{15}{23}{Algorithme de calcul d'opacité}{Doc-Start}{}}
\@writefile{snm}{\beamer@slide {fig:mdpProd}{23}}
\@writefile{nav}{\headcommand {\slideentry {2}{0}{12}{23/23}{}{0}}}
\@writefile{nav}{\headcommand {\beamer@framepages {23}{23}}}
\@writefile{nav}{\headcommand {\slideentry {2}{0}{13}{24/24}{}{0}}}
\@writefile{nav}{\headcommand {\beamer@framepages {24}{24}}}
\@writefile{toc}{\beamer@sectionintoc {3}{Pr\IeC {\'e}servation de l'opacit\IeC {\'e} par raffinement}{25}{0}{3}}
\@writefile{nav}{\headcommand {\sectionentry {3}{Pr\IeC {\'e}servation de l'opacit\IeC {\'e} par raffinement}{25}{Pr\IeC {\'e}servation de l'opacit\IeC {\'e} par raffinement}{0}}}
\@writefile{nav}{\headcommand {\beamer@sectionpages {12}{24}}}
\@writefile{nav}{\headcommand {\beamer@subsectionpages {12}{24}}}
\@writefile{nav}{\headcommand {\slideentry {3}{0}{1}{25/25}{}{0}}}
\@writefile{nav}{\headcommand {\beamer@framepages {25}{25}}}
\newlabel{raff}{{3}{26}{Préservation de l'opacité par raffinement}{Doc-Start}{}}
\@writefile{snm}{\beamer@slide {raff}{26}}
\@writefile{nav}{\headcommand {\slideentry {3}{0}{2}{26/26}{}{0}}}
\@writefile{nav}{\headcommand {\beamer@framepages {26}{26}}}
\newlabel{fig:spec1}{{16}{27}{Préservation de l'opacité par raffinement}{Doc-Start}{}}
\@writefile{snm}{\beamer@slide {fig:spec1}{27}}
\@writefile{nav}{\headcommand {\slideentry {3}{0}{3}{27/27}{}{0}}}
\@writefile{nav}{\headcommand {\beamer@framepages {27}{27}}}
\@writefile{nav}{\headcommand {\slideentry {3}{0}{4}{28/28}{}{0}}}
\@writefile{nav}{\headcommand {\beamer@framepages {28}{28}}}
\@writefile{toc}{\beamer@sectionintoc {4}{Conclusion}{29}{0}{4}}
\@writefile{nav}{\headcommand {\sectionentry {4}{Conclusion}{29}{Conclusion}{0}}}
\@writefile{nav}{\headcommand {\beamer@sectionpages {25}{28}}}
\@writefile{nav}{\headcommand {\beamer@subsectionpages {25}{28}}}
\@writefile{nav}{\headcommand {\slideentry {4}{0}{1}{29/29}{}{0}}}
\@writefile{nav}{\headcommand {\beamer@framepages {29}{29}}}
\@writefile{nav}{\headcommand {\slideentry {4}{0}{2}{30/30}{}{0}}}
\@writefile{nav}{\headcommand {\beamer@framepages {30}{30}}}
\@writefile{nav}{\headcommand {\slideentry {4}{0}{3}{31/31}{}{0}}}
\@writefile{nav}{\headcommand {\beamer@framepages {31}{31}}}
\@writefile{nav}{\headcommand {\beamer@partpages {1}{31}}}
\@writefile{nav}{\headcommand {\beamer@subsectionpages {29}{31}}}
\@writefile{nav}{\headcommand {\beamer@sectionpages {29}{31}}}
\@writefile{nav}{\headcommand {\beamer@documentpages {31}}}
\@writefile{nav}{\headcommand {\def \inserttotalframenumber {31}}}
