\relax 
\providecommand\hyper@newdestlabel[2]{}
\providecommand\HyperFirstAtBeginDocument{\AtBeginDocument}
\HyperFirstAtBeginDocument{\ifx\hyper@anchor\@undefined
\global\let\oldcontentsline\contentsline
\gdef\contentsline#1#2#3#4{\oldcontentsline{#1}{#2}{#3}}
\global\let\oldnewlabel\newlabel
\gdef\newlabel#1#2{\newlabelxx{#1}#2}
\gdef\newlabelxx#1#2#3#4#5#6{\oldnewlabel{#1}{{#2}{#3}}}
\AtEndDocument{\ifx\hyper@anchor\@undefined
\let\contentsline\oldcontentsline
\let\newlabel\oldnewlabel
\fi}
\fi}
\global\let\hyper@last\relax 
\gdef\HyperFirstAtBeginDocument#1{#1}
\providecommand\HyField@AuxAddToFields[1]{}
\providecommand\HyField@AuxAddToCoFields[2]{}
\catcode `:\active 
\catcode `;\active 
\catcode `!\active 
\catcode `?\active 
\@writefile{toc}{\beamer@endinputifotherversion {3.36pt}}
\@writefile{nav}{\beamer@endinputifotherversion {3.36pt}}
\select@language{french}
\@writefile{toc}{\select@language{french}}
\@writefile{lof}{\select@language{french}}
\@writefile{lot}{\select@language{french}}
\@writefile{nav}{\headcommand {\slideentry {0}{0}{1}{1/1}{}{0}}}
\@writefile{nav}{\headcommand {\beamer@framepages {1}{1}}}
\@writefile{nav}{\headcommand {\slideentry {0}{0}{2}{2/5}{}{0}}}
\@writefile{nav}{\headcommand {\beamer@framepages {2}{5}}}
\@writefile{nav}{\headcommand {\slideentry {0}{0}{3}{6/8}{}{0}}}
\@writefile{nav}{\headcommand {\beamer@framepages {6}{8}}}
\newlabel{MotivSpec}{{2a}{9}{Subfigure 2a}{Doc-Start}{}}
\@writefile{snm}{\beamer@slide {MotivSpec}{9}}
\newlabel{sub@MotivSpec}{{(a)}{a}{Subfigure 2a\relax }{Doc-Start}{}}
\newlabel{MotivPts}{{2b}{9}{Subfigure 2b}{Doc-Start}{}}
\@writefile{snm}{\beamer@slide {MotivPts}{9}}
\newlabel{sub@MotivPts}{{(b)}{b}{Subfigure 2b\relax }{Doc-Start}{}}
\newlabel{sub@MotivSpec}{{(c)}{c}{Subfigure 2c\relax }{Doc-Start}{}}
\newlabel{sub@MotivPts}{{(d)}{d}{Subfigure 2d\relax }{Doc-Start}{}}
\newlabel{sub@MotivSpec}{{(e)}{e}{Subfigure 2e\relax }{Doc-Start}{}}
\newlabel{sub@MotivPts}{{(f)}{f}{Subfigure 2f\relax }{Doc-Start}{}}
\@writefile{nav}{\headcommand {\slideentry {0}{0}{4}{9/11}{}{0}}}
\@writefile{nav}{\headcommand {\beamer@framepages {9}{11}}}
\@writefile{nav}{\headcommand {\slideentry {0}{0}{5}{12/12}{}{0}}}
\@writefile{nav}{\headcommand {\beamer@framepages {12}{12}}}
\@writefile{toc}{\beamer@sectionintoc {1}{Pr\IeC {\'e}liminaires}{13}{0}{1}}
\@writefile{nav}{\headcommand {\sectionentry {1}{Pr\IeC {\'e}liminaires}{13}{Pr\IeC {\'e}liminaires}{0}}}
\@writefile{nav}{\headcommand {\beamer@sectionpages {1}{12}}}
\@writefile{nav}{\headcommand {\beamer@subsectionpages {1}{12}}}
\@writefile{nav}{\headcommand {\slideentry {1}{0}{1}{13/13}{}{0}}}
\@writefile{nav}{\headcommand {\beamer@framepages {13}{13}}}
\newlabel{prelim}{{1}{14}{Préliminaires}{Doc-Start}{}}
\@writefile{snm}{\beamer@slide {prelim}{14}}
\@writefile{}{\contentsline {subfigure}{\numberline{(a)}{\ignorespaces {Mod\IeC {\`e}le $\ensuremath {\mathcal {S}}_1$ }}}}
\@writefile{}{\contentsline {subfigure}{\numberline{(b)}{\ignorespaces {Mod\IeC {\`e}le $\ensuremath {\mathcal {S}}_2$ }}}}
\@writefile{}{\contentsline {subfigure}{\numberline{(c)}{\ignorespaces {Mod\IeC {\`e}le $\ensuremath {\mathcal {S}}_1$ }}}}
\@writefile{}{\contentsline {subfigure}{\numberline{(d)}{\ignorespaces {Mod\IeC {\`e}le $\ensuremath {\mathcal {S}}_2$ }}}}
\@writefile{}{\contentsline {subfigure}{\numberline{(e)}{\ignorespaces {Mod\IeC {\`e}le $\ensuremath {\mathcal {S}}_1$ }}}}
\@writefile{}{\contentsline {subfigure}{\numberline{(f)}{\ignorespaces {Mod\IeC {\`e}le $\ensuremath {\mathcal {S}}_2$ }}}}
\newlabel{fig:dpa}{{2}{14}{Préliminaires}{Doc-Start}{}}
\@writefile{snm}{\beamer@slide {fig:dpa}{14}}
\@writefile{nav}{\headcommand {\slideentry {1}{0}{2}{14/14}{}{0}}}
\@writefile{nav}{\headcommand {\beamer@framepages {14}{14}}}
\@writefile{nav}{\headcommand {\slideentry {1}{0}{3}{15/16}{}{0}}}
\@writefile{nav}{\headcommand {\beamer@framepages {15}{16}}}
\@writefile{}{\contentsline {subfigure}{\numberline{(a)}{\ignorespaces {Impl\IeC {\'e}mente $\mathcal {M}$}}}}
\@writefile{}{\contentsline {subfigure}{\numberline{(b)}{\ignorespaces {N'impl\IeC {\'e}mente pas $\mathcal {M}$}}}}
\@writefile{nav}{\headcommand {\slideentry {1}{0}{4}{17/20}{}{0}}}
\@writefile{nav}{\headcommand {\beamer@framepages {17}{20}}}
\@writefile{nav}{\headcommand {\slideentry {1}{0}{5}{21/25}{}{0}}}
\@writefile{nav}{\headcommand {\beamer@framepages {21}{25}}}
\@writefile{nav}{\headcommand {\slideentry {1}{0}{6}{26/28}{}{0}}}
\@writefile{nav}{\headcommand {\beamer@framepages {26}{28}}}
\@writefile{nav}{\headcommand {\slideentry {1}{0}{7}{29/31}{}{0}}}
\@writefile{nav}{\headcommand {\beamer@framepages {29}{31}}}
\@writefile{}{\contentsline {subfigure}{\numberline{(a)}{\ignorespaces {Secret opaque}}}}
\@writefile{}{\contentsline {subfigure}{\numberline{(b)}{\ignorespaces {Secret non-opaque}}}}
\@writefile{}{\contentsline {subfigure}{\numberline{(c)}{\ignorespaces {Secret opaque}}}}
\@writefile{}{\contentsline {subfigure}{\numberline{(d)}{\ignorespaces {Secret non-opaque}}}}
\@writefile{}{\contentsline {subfigure}{\numberline{(e)}{\ignorespaces {Secret opaque}}}}
\@writefile{}{\contentsline {subfigure}{\numberline{(f)}{\ignorespaces {Secret non-opaque}}}}
\@writefile{}{\contentsline {subfigure}{\numberline{(g)}{\ignorespaces {Secret opaque}}}}
\@writefile{}{\contentsline {subfigure}{\numberline{(h)}{\ignorespaces {Secret non-opaque}}}}
\@writefile{}{\contentsline {subfigure}{\numberline{(i)}{\ignorespaces {Secret opaque}}}}
\@writefile{}{\contentsline {subfigure}{\numberline{(j)}{\ignorespaces {Secret non-opaque}}}}
\@writefile{}{\contentsline {subfigure}{\numberline{(k)}{\ignorespaces {Secret opaque}}}}
\@writefile{}{\contentsline {subfigure}{\numberline{(l)}{\ignorespaces {Secret non-opaque}}}}
\@writefile{nav}{\headcommand {\slideentry {1}{0}{8}{32/37}{}{0}}}
\@writefile{nav}{\headcommand {\beamer@framepages {32}{37}}}
\@writefile{nav}{\headcommand {\slideentry {1}{0}{9}{38/38}{}{0}}}
\@writefile{nav}{\headcommand {\beamer@framepages {38}{38}}}
\@writefile{toc}{\beamer@sectionintoc {2}{Sp\IeC {\'e}cification et raffinement}{39}{0}{2}}
\@writefile{nav}{\headcommand {\sectionentry {2}{Sp\IeC {\'e}cification et raffinement}{39}{Sp\IeC {\'e}cification et raffinement}{0}}}
\@writefile{nav}{\headcommand {\beamer@sectionpages {13}{38}}}
\@writefile{nav}{\headcommand {\beamer@subsectionpages {13}{38}}}
\@writefile{nav}{\headcommand {\slideentry {2}{0}{1}{39/39}{}{0}}}
\@writefile{nav}{\headcommand {\beamer@framepages {39}{39}}}
\newlabel{spec}{{2}{40}{Spécification et raffinement}{Doc-Start}{}}
\@writefile{snm}{\beamer@slide {spec}{40}}
\@writefile{nav}{\headcommand {\slideentry {2}{0}{2}{40/40}{}{0}}}
\@writefile{nav}{\headcommand {\beamer@framepages {40}{40}}}
\@writefile{}{\contentsline {subfigure}{\numberline{(a)}{\ignorespaces {IDTMC $\ensuremath {\mathcal {S}}$}}}}
\@writefile{}{\contentsline {subfigure}{\numberline{(b)}{\ignorespaces {M\IeC {\'e}moire d'ordonnanceur $A$ de taille 2}}}}
\@writefile{}{\contentsline {subfigure}{\numberline{(a)}{\ignorespaces {IDTMC $\ensuremath {\mathcal {S}}$}}}}
\@writefile{}{\contentsline {subfigure}{\numberline{(b)}{\ignorespaces {M\IeC {\'e}moire d'ordonnanceur $A$ de taille 2}}}}
\@writefile{}{\contentsline {subfigure}{\numberline{(a)}{\ignorespaces {IDTMC $\ensuremath {\mathcal {S}}$}}}}
\@writefile{}{\contentsline {subfigure}{\numberline{(b)}{\ignorespaces {M\IeC {\'e}moire d'ordonnanceur $A$ de taille 2}}}}
\@writefile{}{\contentsline {subfigure}{\numberline{(a)}{\ignorespaces {IDTMC $\ensuremath {\mathcal {S}}$}}}}
\@writefile{}{\contentsline {subfigure}{\numberline{(b)}{\ignorespaces {M\IeC {\'e}moire d'ordonnanceur $A$ de taille 2}}}}
\@writefile{nav}{\headcommand {\slideentry {2}{0}{3}{41/44}{}{0}}}
\@writefile{nav}{\headcommand {\beamer@framepages {41}{44}}}
\@writefile{toc}{\beamer@sectionintoc {3}{Calcul de l'opacit\IeC {\'e} dans les sp\IeC {\'e}cifications}{45}{0}{3}}
\@writefile{nav}{\headcommand {\sectionentry {3}{Calcul de l'opacit\IeC {\'e} dans les sp\IeC {\'e}cifications}{45}{Calcul de l'opacit\IeC {\'e} dans les sp\IeC {\'e}cifications}{0}}}
\@writefile{nav}{\headcommand {\beamer@sectionpages {39}{44}}}
\@writefile{nav}{\headcommand {\beamer@subsectionpages {39}{44}}}
\@writefile{nav}{\headcommand {\slideentry {3}{0}{1}{45/45}{}{0}}}
\@writefile{nav}{\headcommand {\beamer@framepages {45}{45}}}
\newlabel{opacite}{{3}{46}{Calcul de l'opacité dans les spécifications}{Doc-Start}{}}
\@writefile{snm}{\beamer@slide {opacite}{46}}
\@writefile{nav}{\headcommand {\slideentry {3}{0}{2}{46/46}{}{0}}}
\@writefile{nav}{\headcommand {\beamer@framepages {46}{46}}}
\@writefile{nav}{\headcommand {\slideentry {3}{0}{3}{47/49}{}{0}}}
\@writefile{nav}{\headcommand {\beamer@framepages {47}{49}}}
\@writefile{nav}{\headcommand {\slideentry {3}{0}{4}{50/55}{}{0}}}
\@writefile{nav}{\headcommand {\beamer@framepages {50}{55}}}
\@writefile{nav}{\headcommand {\slideentry {3}{0}{5}{56/63}{}{0}}}
\@writefile{nav}{\headcommand {\beamer@framepages {56}{63}}}
\@writefile{nav}{\headcommand {\slideentry {3}{0}{6}{64/66}{}{0}}}
\@writefile{nav}{\headcommand {\beamer@framepages {64}{66}}}
\@writefile{}{\contentsline {subfigure}{\numberline{(a)}{\ignorespaces {Sp\IeC {\'e}cification modale}}}}
\@writefile{}{\contentsline {subfigure}{\numberline{(b)}{\ignorespaces {Premier ordonnancement}}}}
\@writefile{}{\contentsline {subfigure}{\numberline{(c)}{\ignorespaces {Second ordonnancement}}}}
\@writefile{}{\contentsline {subfigure}{\numberline{(d)}{\ignorespaces {Sp\IeC {\'e}cification modale}}}}
\@writefile{}{\contentsline {subfigure}{\numberline{(e)}{\ignorespaces {Premier ordonnancement}}}}
\@writefile{}{\contentsline {subfigure}{\numberline{(f)}{\ignorespaces {Second ordonnancement}}}}
\@writefile{}{\contentsline {subfigure}{\numberline{(g)}{\ignorespaces {Sp\IeC {\'e}cification modale}}}}
\@writefile{}{\contentsline {subfigure}{\numberline{(h)}{\ignorespaces {Premier ordonnancement}}}}
\@writefile{}{\contentsline {subfigure}{\numberline{(i)}{\ignorespaces {Second ordonnancement}}}}
\@writefile{}{\contentsline {subfigure}{\numberline{(j)}{\ignorespaces {Sp\IeC {\'e}cification $\ensuremath {\mathcal {S}}$}}}}
\@writefile{}{\contentsline {subfigure}{\numberline{(k)}{\ignorespaces {Automate $\mathcal {A}_\mathcal {V}$ reconnaissant le langage $\mathcal {V}=abc^\omega $}}}}
\@writefile{}{\contentsline {subfigure}{\numberline{(l)}{\ignorespaces {Sp\IeC {\'e}cification $\ensuremath {\mathcal {S}}$}}}}
\@writefile{}{\contentsline {subfigure}{\numberline{(m)}{\ignorespaces {Automate $\mathcal {A}_\mathcal {V}$ reconnaissant le langage $\mathcal {V}=abc^\omega $}}}}
\@writefile{}{\contentsline {subfigure}{\numberline{(n)}{\ignorespaces {Sp\IeC {\'e}cification $\ensuremath {\mathcal {S}}$}}}}
\@writefile{}{\contentsline {subfigure}{\numberline{(o)}{\ignorespaces {Automate $\mathcal {A}_\mathcal {V}$ reconnaissant le langage $\mathcal {V}=abc^\omega $}}}}
\newlabel{fig:auth}{{11}{67}{Calcul de l'opacité dans les spécifications}{Doc-Start}{}}
\@writefile{snm}{\beamer@slide {fig:auth}{67}}
\@writefile{nav}{\headcommand {\slideentry {3}{0}{7}{67/68}{}{0}}}
\@writefile{nav}{\headcommand {\beamer@framepages {67}{68}}}
\newlabel{fig:auth}{{12}{69}{Calcul de l'opacité dans les spécifications}{Doc-Start}{}}
\@writefile{snm}{\beamer@slide {fig:auth}{69}}
\@writefile{nav}{\headcommand {\slideentry {3}{0}{8}{69/70}{}{0}}}
\@writefile{nav}{\headcommand {\beamer@framepages {69}{70}}}
\@writefile{}{\contentsline {subfigure}{\numberline{(a)}{\ignorespaces {Sp\IeC {\'e}cification non-modale $\ensuremath {\mathcal {S}}_d\setminus \mathcal {E}$}}}}
\@writefile{}{\contentsline {subfigure}{\numberline{(b)}{\ignorespaces {Automate $\mathcal {A}_\mathcal {V}$}}}}
\newlabel{fig:idtmcProd}{{13}{71}{Calcul de l'opacité dans les spécifications}{Doc-Start}{}}
\@writefile{snm}{\beamer@slide {fig:idtmcProd}{71}}
\@writefile{}{\contentsline {subfigure}{\numberline{(a)}{\ignorespaces {Sp\IeC {\'e}cification non-modale $\ensuremath {\mathcal {S}}_d\setminus \mathcal {E}$}}}}
\@writefile{}{\contentsline {subfigure}{\numberline{(b)}{\ignorespaces {Automate $\mathcal {A}_\mathcal {V}$}}}}
\@writefile{nav}{\headcommand {\slideentry {3}{0}{9}{71/72}{}{0}}}
\@writefile{nav}{\headcommand {\beamer@framepages {71}{72}}}
\@writefile{}{\contentsline {subfigure}{\numberline{(a)}{\ignorespaces {Synchronisation $\ensuremath {\mathcal {S}}_{d,\mathcal {V}}$}}}}
\@writefile{}{\contentsline {subfigure}{\numberline{(b)}{\ignorespaces {MDP $\mathcal {M}_\mathcal {V}$}}}}
\@writefile{}{\contentsline {subfigure}{\numberline{(a)}{\ignorespaces {Synchronisation $\ensuremath {\mathcal {S}}_{d,\mathcal {V}}$}}}}
\@writefile{}{\contentsline {subfigure}{\numberline{(b)}{\ignorespaces {MDP $\mathcal {M}_\mathcal {V}$}}}}
\@writefile{}{\contentsline {subfigure}{\numberline{(a)}{\ignorespaces {Synchronisation $\ensuremath {\mathcal {S}}_{d,\mathcal {V}}$}}}}
\@writefile{}{\contentsline {subfigure}{\numberline{(b)}{\ignorespaces {MDP $\mathcal {M}_\mathcal {V}$}}}}
\@writefile{nav}{\headcommand {\slideentry {3}{0}{10}{73/75}{}{0}}}
\@writefile{nav}{\headcommand {\beamer@framepages {73}{75}}}
\newlabel{tab:impl}{{2}{76}{Calcul de l'opacité dans les spécifications}{Doc-Start}{}}
\@writefile{snm}{\beamer@slide {tab:impl}{76}}
\@writefile{nav}{\headcommand {\slideentry {3}{0}{11}{76/77}{}{0}}}
\@writefile{nav}{\headcommand {\beamer@framepages {76}{77}}}
\@writefile{toc}{\beamer@sectionintoc {4}{Pr\IeC {\'e}servation de l'opacit\IeC {\'e} par raffinement}{78}{0}{4}}
\@writefile{nav}{\headcommand {\sectionentry {4}{Pr\IeC {\'e}servation de l'opacit\IeC {\'e} par raffinement}{78}{Pr\IeC {\'e}servation de l'opacit\IeC {\'e} par raffinement}{0}}}
\@writefile{nav}{\headcommand {\beamer@sectionpages {45}{77}}}
\@writefile{nav}{\headcommand {\beamer@subsectionpages {45}{77}}}
\@writefile{nav}{\headcommand {\slideentry {4}{0}{1}{78/78}{}{0}}}
\@writefile{nav}{\headcommand {\beamer@framepages {78}{78}}}
\newlabel{preser}{{4}{79}{Préservation de l'opacité par raffinement}{Doc-Start}{}}
\@writefile{snm}{\beamer@slide {preser}{79}}
\@writefile{nav}{\headcommand {\slideentry {4}{0}{2}{79/80}{}{0}}}
\@writefile{nav}{\headcommand {\beamer@framepages {79}{80}}}
\@writefile{nav}{\headcommand {\slideentry {4}{0}{3}{81/81}{}{0}}}
\@writefile{nav}{\headcommand {\beamer@framepages {81}{81}}}
\@writefile{nav}{\headcommand {\slideentry {4}{0}{4}{82/82}{}{0}}}
\@writefile{nav}{\headcommand {\beamer@framepages {82}{82}}}
\@writefile{}{\contentsline {subfigure}{\numberline{(a)}{\ignorespaces {Sp\IeC {\'e}cification $\ensuremath {\mathcal {S}}$}}}}
\@writefile{}{\contentsline {subfigure}{\numberline{(b)}{\ignorespaces {Un raffinement de $\ensuremath {\mathcal {S}}$}}}}
\@writefile{nav}{\headcommand {\slideentry {4}{0}{5}{83/83}{}{0}}}
\@writefile{nav}{\headcommand {\beamer@framepages {83}{83}}}
\@writefile{toc}{\beamer@sectionintoc {5}{Conclusion}{84}{0}{5}}
\@writefile{nav}{\headcommand {\sectionentry {5}{Conclusion}{84}{Conclusion}{0}}}
\@writefile{nav}{\headcommand {\beamer@sectionpages {78}{83}}}
\@writefile{nav}{\headcommand {\beamer@subsectionpages {78}{83}}}
\@writefile{nav}{\headcommand {\slideentry {5}{0}{1}{84/84}{}{0}}}
\@writefile{nav}{\headcommand {\beamer@framepages {84}{84}}}
\@writefile{nav}{\headcommand {\slideentry {5}{0}{2}{85/85}{}{0}}}
\@writefile{nav}{\headcommand {\beamer@framepages {85}{85}}}
\@writefile{nav}{\headcommand {\slideentry {5}{0}{3}{86/86}{}{0}}}
\@writefile{nav}{\headcommand {\beamer@framepages {86}{86}}}
\@writefile{nav}{\headcommand {\beamer@partpages {1}{86}}}
\@writefile{nav}{\headcommand {\beamer@subsectionpages {84}{86}}}
\@writefile{nav}{\headcommand {\beamer@sectionpages {84}{86}}}
\@writefile{nav}{\headcommand {\beamer@documentpages {86}}}
\@writefile{nav}{\headcommand {\def \inserttotalframenumber {36}}}
