\BOOKMARK [2][]{Outline0.1}{Pr\351liminaires}{}% 1
\BOOKMARK [2][]{Outline0.2}{Sp\351cification et raffinement}{}% 2
\BOOKMARK [2][]{Outline0.3}{Calcul de l'opacit\351 dans les sp\351cifications}{}% 3
\BOOKMARK [2][]{Outline0.4}{Pr\351servation de l'opacit\351 par raffinement}{}% 4
\BOOKMARK [2][]{Outline0.5}{Conclusion}{}% 5
