\beamer@endinputifotherversion {3.36pt}
\headcommand {\slideentry {0}{0}{1}{1/1}{}{0}}
\headcommand {\beamer@framepages {1}{1}}
\headcommand {\slideentry {0}{0}{2}{2/5}{}{0}}
\headcommand {\beamer@framepages {2}{5}}
\headcommand {\slideentry {0}{0}{3}{6/8}{}{0}}
\headcommand {\beamer@framepages {6}{8}}
\headcommand {\slideentry {0}{0}{4}{9/11}{}{0}}
\headcommand {\beamer@framepages {9}{11}}
\headcommand {\slideentry {0}{0}{5}{12/12}{}{0}}
\headcommand {\beamer@framepages {12}{12}}
\headcommand {\sectionentry {1}{Pr\IeC {\'e}liminaires}{13}{Pr\IeC {\'e}liminaires}{0}}
\headcommand {\beamer@sectionpages {1}{12}}
\headcommand {\beamer@subsectionpages {1}{12}}
\headcommand {\slideentry {1}{0}{1}{13/13}{}{0}}
\headcommand {\beamer@framepages {13}{13}}
\headcommand {\slideentry {1}{0}{2}{14/14}{}{0}}
\headcommand {\beamer@framepages {14}{14}}
\headcommand {\slideentry {1}{0}{3}{15/16}{}{0}}
\headcommand {\beamer@framepages {15}{16}}
\headcommand {\slideentry {1}{0}{4}{17/20}{}{0}}
\headcommand {\beamer@framepages {17}{20}}
\headcommand {\slideentry {1}{0}{5}{21/25}{}{0}}
\headcommand {\beamer@framepages {21}{25}}
\headcommand {\slideentry {1}{0}{6}{26/28}{}{0}}
\headcommand {\beamer@framepages {26}{28}}
\headcommand {\slideentry {1}{0}{7}{29/31}{}{0}}
\headcommand {\beamer@framepages {29}{31}}
\headcommand {\slideentry {1}{0}{8}{32/37}{}{0}}
\headcommand {\beamer@framepages {32}{37}}
\headcommand {\slideentry {1}{0}{9}{38/38}{}{0}}
\headcommand {\beamer@framepages {38}{38}}
\headcommand {\sectionentry {2}{Sp\IeC {\'e}cification et raffinement}{39}{Sp\IeC {\'e}cification et raffinement}{0}}
\headcommand {\beamer@sectionpages {13}{38}}
\headcommand {\beamer@subsectionpages {13}{38}}
\headcommand {\slideentry {2}{0}{1}{39/39}{}{0}}
\headcommand {\beamer@framepages {39}{39}}
\headcommand {\slideentry {2}{0}{2}{40/40}{}{0}}
\headcommand {\beamer@framepages {40}{40}}
\headcommand {\slideentry {2}{0}{3}{41/44}{}{0}}
\headcommand {\beamer@framepages {41}{44}}
\headcommand {\sectionentry {3}{Calcul de l'opacit\IeC {\'e} dans les sp\IeC {\'e}cifications}{45}{Calcul de l'opacit\IeC {\'e} dans les sp\IeC {\'e}cifications}{0}}
\headcommand {\beamer@sectionpages {39}{44}}
\headcommand {\beamer@subsectionpages {39}{44}}
\headcommand {\slideentry {3}{0}{1}{45/45}{}{0}}
\headcommand {\beamer@framepages {45}{45}}
\headcommand {\slideentry {3}{0}{2}{46/46}{}{0}}
\headcommand {\beamer@framepages {46}{46}}
\headcommand {\slideentry {3}{0}{3}{47/49}{}{0}}
\headcommand {\beamer@framepages {47}{49}}
\headcommand {\slideentry {3}{0}{4}{50/55}{}{0}}
\headcommand {\beamer@framepages {50}{55}}
\headcommand {\slideentry {3}{0}{5}{56/63}{}{0}}
\headcommand {\beamer@framepages {56}{63}}
\headcommand {\slideentry {3}{0}{6}{64/66}{}{0}}
\headcommand {\beamer@framepages {64}{66}}
\headcommand {\slideentry {3}{0}{7}{67/68}{}{0}}
\headcommand {\beamer@framepages {67}{68}}
\headcommand {\slideentry {3}{0}{8}{69/70}{}{0}}
\headcommand {\beamer@framepages {69}{70}}
\headcommand {\slideentry {3}{0}{9}{71/72}{}{0}}
\headcommand {\beamer@framepages {71}{72}}
\headcommand {\slideentry {3}{0}{10}{73/75}{}{0}}
\headcommand {\beamer@framepages {73}{75}}
\headcommand {\slideentry {3}{0}{11}{76/77}{}{0}}
\headcommand {\beamer@framepages {76}{77}}
\headcommand {\sectionentry {4}{Pr\IeC {\'e}servation de l'opacit\IeC {\'e} par raffinement}{78}{Pr\IeC {\'e}servation de l'opacit\IeC {\'e} par raffinement}{0}}
\headcommand {\beamer@sectionpages {45}{77}}
\headcommand {\beamer@subsectionpages {45}{77}}
\headcommand {\slideentry {4}{0}{1}{78/78}{}{0}}
\headcommand {\beamer@framepages {78}{78}}
\headcommand {\slideentry {4}{0}{2}{79/80}{}{0}}
\headcommand {\beamer@framepages {79}{80}}
\headcommand {\slideentry {4}{0}{3}{81/81}{}{0}}
\headcommand {\beamer@framepages {81}{81}}
\headcommand {\slideentry {4}{0}{4}{82/82}{}{0}}
\headcommand {\beamer@framepages {82}{82}}
\headcommand {\slideentry {4}{0}{5}{83/83}{}{0}}
\headcommand {\beamer@framepages {83}{83}}
\headcommand {\sectionentry {5}{Conclusion}{84}{Conclusion}{0}}
\headcommand {\beamer@sectionpages {78}{83}}
\headcommand {\beamer@subsectionpages {78}{83}}
\headcommand {\slideentry {5}{0}{1}{84/84}{}{0}}
\headcommand {\beamer@framepages {84}{84}}
\headcommand {\slideentry {5}{0}{2}{85/85}{}{0}}
\headcommand {\beamer@framepages {85}{85}}
\headcommand {\slideentry {5}{0}{3}{86/86}{}{0}}
\headcommand {\beamer@framepages {86}{86}}
\headcommand {\beamer@partpages {1}{86}}
\headcommand {\beamer@subsectionpages {84}{86}}
\headcommand {\beamer@sectionpages {84}{86}}
\headcommand {\beamer@documentpages {86}}
\headcommand {\def \inserttotalframenumber {36}}
