\relax 
\providecommand\hyper@newdestlabel[2]{}
\providecommand\HyperFirstAtBeginDocument{\AtBeginDocument}
\HyperFirstAtBeginDocument{\ifx\hyper@anchor\@undefined
\global\let\oldcontentsline\contentsline
\gdef\contentsline#1#2#3#4{\oldcontentsline{#1}{#2}{#3}}
\global\let\oldnewlabel\newlabel
\gdef\newlabel#1#2{\newlabelxx{#1}#2}
\gdef\newlabelxx#1#2#3#4#5#6{\oldnewlabel{#1}{{#2}{#3}}}
\AtEndDocument{\ifx\hyper@anchor\@undefined
\let\contentsline\oldcontentsline
\let\newlabel\oldnewlabel
\fi}
\fi}
\global\let\hyper@last\relax 
\gdef\HyperFirstAtBeginDocument#1{#1}
\providecommand\HyField@AuxAddToFields[1]{}
\providecommand\HyField@AuxAddToCoFields[2]{}
\select@language{english}
\@writefile{toc}{\select@language{english}}
\@writefile{lof}{\select@language{english}}
\@writefile{lot}{\select@language{english}}
\citation{clarkson10}
\citation{alur06}
\citation{mazare05,bryans08,alur06}
\citation{SH14,mscs15,BCS15}
\@writefile{toc}{\contentsline {section}{\numberline {1}Introduction}{3}{section.1}}
\newlabel{intro}{{1}{3}{Introduction}{section.1}{}}
\@writefile{toc}{\contentsline {paragraph}{Context and motivation.}{3}{section*.2}}
\newlabel{fig:interference1quart}{{1}{3}{Context and motivation}{section*.2}{}}
\newlabel{fig:interference3quarts}{{1}{3}{Context and motivation}{section*.2}{}}
\newlabel{fig:interferenceIDTMC}{{1}{3}{Context and motivation}{section*.2}{}}
\@writefile{lof}{\contentsline {figure}{\numberline {1}{\ignorespaces Probabilistic systems $\mathcal  {A}_1$ or $\mathcal  {A}_2$ implementing underspecified system $\ensuremath  {\mathcal  {S}}$.}}{3}{figure.3}}
\newlabel{fig:interference}{{1}{3}{Probabilistic systems $\mathcal {A}_1$ or $\mathcal {A}_2$ implementing underspecified system $\Spec $}{figure.3}{}}
\citation{baier05}
\citation{larsen-jonsson,segala95,ChatterjeeHenzinger2008,CaillaudDLLPW11,Worrell2013,BCS15,Delahaye15}
\citation{larsen-jonsson}
\citation{CaillaudDLLPW11}
\citation{larsen-jonsson}
\citation{BCS15}
\citation{BKMS-wodes16}
\@writefile{toc}{\contentsline {paragraph}{Contributions.}{4}{section*.4}}
\@writefile{toc}{\contentsline {paragraph}{Organization of the paper.}{4}{section*.5}}
\citation{baier05}
\citation{larsen-jonsson}
\@writefile{lof}{\contentsline {figure}{\numberline {2}{\ignorespaces A DPA for $\ensuremath  {\varphi }_b=ab\Sigma ^{\omega }$ with $F(q_0)=F(q_2)=1$ and $F(q_2)=2$.}}{5}{figure.9}}
\newlabel{fig:dpa}{{2}{5}{A DPA for $\fee _b=ab\Sigma ^{\omega }$ with $F(q_0)=F(q_2)=1$ and $F(q_2)=2$}{figure.9}{}}
\@writefile{toc}{\contentsline {section}{\numberline {2}Probabilistic transition systems and opacity}{5}{section.6}}
\newlabel{sec:background}{{2}{5}{Probabilistic transition systems and opacity}{section.6}{}}
\@writefile{toc}{\contentsline {subsection}{\numberline {2.1}Probabilistic Labelled Transition Systems and their languages}{5}{subsection.7}}
\newlabel{subsec:bg-probproc}{{2.1}{5}{Probabilistic Labelled Transition Systems and their languages}{subsection.7}{}}
\citation{larsen-jonsson,CaillaudDLLPW11}
\citation{BillingsleyMeasure95}
\citation{bryans08}
\citation{qest10,SH14}
\citation{SH14}
\@writefile{toc}{\contentsline {subsection}{\numberline {2.2}Probabilistic Opacity }{6}{subsection.11}}
\newlabel{sec:bg-opacity}{{2.2}{6}{Probabilistic Opacity}{subsection.11}{}}
\citation{chaum88,bhargava05}
\citation{mscs15}
\citation{larsen-jonsson}
\citation{CaillaudDLLPW11}
\citation{ChatterjeeHenzinger2008,Worrell2013,BKMS-wodes16}
\citation{Delahaye15}
\citation{CaillaudDLLPW11}
\@writefile{toc}{\contentsline {section}{\numberline {3}Constraint Markov Chains, Opacity and Refinement}{7}{section.13}}
\newlabel{sec:IMC}{{3}{7}{Constraint Markov Chains, Opacity and Refinement}{section.13}{}}
\@writefile{toc}{\contentsline {subsection}{\numberline {3.1}Constraint Markov Chains and Opacity}{7}{subsection.14}}
\citation{ChatterjeeHenzinger2008,Worrell2013}
\citation{ChatterjeeHenzinger2008}
\citation{larsen-jonsson,CaillaudDLLPW11}
\citation{CaillaudDLLPW11}
\@writefile{lof}{\contentsline {figure}{\numberline {3}{\ignorespaces An LCMC which is not a conjunction of IMCs.}}{9}{figure.17}}
\newlabel{fig:CMCequation}{{3}{9}{An LCMC which is not a conjunction of IMCs}{figure.17}{}}
\citation{BCS15}
\citation{BCS15}
\citation{larsen-jonsson}
\citation{CaillaudDLLPW11}
\@writefile{toc}{\contentsline {subsection}{\numberline {3.2}Refinement}{10}{subsection.19}}
\newlabel{subsec:sat}{{3.2}{10}{Refinement}{subsection.19}{}}
\newlabel{def-simulation}{{7}{10}{Refinement}{definition.20}{}}
\newlabel{sim:labels}{{1}{10}{Refinement}{Item.21}{}}
\newlabel{sim:dist}{{2}{10}{Refinement}{Item.22}{}}
\newlabel{sim:forward}{{3}{10}{Refinement}{Item.23}{}}
\newlabel{def-weak-refinement}{{8}{10}{Refinement}{definition.24}{}}
\newlabel{sim:labels-weak}{{1}{10}{Refinement}{Item.25}{}}
\newlabel{sim:dist-weak}{{2}{10}{Refinement}{Item.26}{}}
\newlabel{sim:forward-weak}{{3}{10}{Refinement}{Item.27}{}}
\citation{larsen-jonsson}
\citation{CaillaudDLLPW11}
\@writefile{lof}{\contentsline {figure}{\numberline {4}{\ignorespaces A refinement of $\ensuremath  {\mathcal  {S}}_2$ by $\ensuremath  {\mathcal  {S}}_1$.}}{11}{figure.28}}
\newlabel{fig:specsimulation}{{4}{11}{A refinement of $\Spec _2$ by $\Spec _1$}{figure.28}{}}
\newlabel{simrel-probaPTSs}{{3.2}{11}{Refinement}{figure.28}{}}
\newlabel{prop-implementation}{{1}{11}{Refinement}{proposition.29}{}}
\newlabel{eq}{{1}{11}{Refinement}{equation.30}{}}
\newlabel{fig:schednotcompletespec}{{3.2}{12}{Refinement}{equation.30}{}}
\newlabel{fig:schednotcompletesched}{{3.2}{12}{Refinement}{equation.30}{}}
\newlabel{fig:schednotcompleteimplem}{{3.2}{12}{Refinement}{equation.30}{}}
\@writefile{lof}{\contentsline {figure}{\numberline {5}{\ignorespaces A specification with an implementation that is not the result of scheduling.}}{12}{figure.31}}
\newlabel{fig:schednotcomplete}{{5}{12}{A specification with an implementation that is not the result of scheduling}{figure.31}{}}
\citation{biondi14}
\@writefile{toc}{\contentsline {subsection}{\numberline {3.3}Motivating example}{13}{subsection.32}}
\newlabel{subsec:ex}{{3.3}{13}{Motivating example}{subsection.32}{}}
\citation{larsen-jonsson}
\newlabel{fig:auth1}{{3.3}{14}{Motivating example}{subsection.32}{}}
\newlabel{fig:auth2}{{3.3}{14}{Motivating example}{subsection.32}{}}
\@writefile{lof}{\contentsline {figure}{\numberline {6}{\ignorespaces An access control mechanism to a medical database $\ensuremath  {\mathcal  {S}}_2$ and its refinement $\ensuremath  {\mathcal  {S}}_1$.}}{14}{figure.33}}
\newlabel{fig:auth}{{6}{14}{An access control mechanism to a medical database $\Spec _2$ and its refinement $\Spec _1$}{figure.33}{}}
\@writefile{toc}{\contentsline {section}{\numberline {4}Computing the probabilistic disclosure}{14}{section.34}}
\newlabel{sec:compute}{{4}{14}{Computing the probabilistic disclosure}{section.34}{}}
\@writefile{toc}{\contentsline {subsection}{\numberline {4.1}Modal edges}{14}{subsection.35}}
\citation{RoTeVi97}
\newlabel{fig:modalImdp}{{4.1}{15}{Modal edges}{definition.36}{}}
\newlabel{fig:noModalImdp}{{4.1}{15}{Modal edges}{definition.36}{}}
\newlabel{fig:implModal}{{4.1}{15}{Modal edges}{definition.36}{}}
\newlabel{fig:implNoModal}{{4.1}{15}{Modal edges}{definition.36}{}}
\@writefile{lof}{\contentsline {figure}{\numberline {7}{\ignorespaces The influence of modal transitions on disclosure.}}{15}{figure.37}}
\newlabel{fig:modality}{{7}{15}{The influence of modal transitions on disclosure}{figure.37}{}}
\newlabel{thm:MEdetection}{{2}{15}{Modal edges}{proposition.38}{}}
\citation{SenVA06}
\citation{Piterman07}
\@writefile{toc}{\contentsline {subsection}{\numberline {4.2}Computation in non-modal LCMCs}{16}{subsection.39}}
\newlabel{thm:computNoModal}{{1}{16}{Computation in non-modal LCMCs}{theorem.40}{}}
\@writefile{lof}{\contentsline {figure}{\numberline {8}{\ignorespaces Basic Feasible Solutions for state $q_0$.}}{17}{figure.41}}
\newlabel{fig:cornerpoints}{{8}{17}{Basic Feasible Solutions for state $q_0$}{figure.41}{}}
\@writefile{lof}{\contentsline {figure}{\numberline {9}{\ignorespaces Transforming an LCMC into an MDP using BFSs.}}{17}{figure.42}}
\newlabel{fig:cornerpointMdp}{{9}{17}{Transforming an LCMC into an MDP using BFSs}{figure.42}{}}
\@writefile{toc}{\contentsline {subsection}{\numberline {4.3}Towards the general case}{17}{subsection.43}}
\citation{baier-katoen}
\@writefile{lof}{\contentsline {figure}{\numberline {10}{\ignorespaces IMC where the choice on modal edge requires history.}}{18}{figure.44}}
\newlabel{fig:histmodaledge}{{10}{18}{IMC where the choice on modal edge requires history}{figure.44}{}}
\citation{CaillaudDLLPW11}
\@writefile{toc}{\contentsline {paragraph}{The unwinding construction.}{19}{section*.46}}
\newlabel{lem:rewind}{{1}{19}{The unwinding construction}{lemma.47}{}}
\@writefile{toc}{\contentsline {paragraph}{The modal edge removing construction.}{19}{section*.48}}
\@writefile{toc}{\contentsline {paragraph}{The algorithm.}{19}{section*.49}}
\newlabel{algo:unwind}{{4.3}{19}{The algorithm}{section*.49}{}}
\newlabel{algo:modal}{{4.3}{19}{The algorithm}{section*.49}{}}
\newlabel{algo:disc}{{4.3}{19}{The algorithm}{section*.49}{}}
\newlabel{algomod}{{4.3}{20}{The algorithm}{section*.49}{}}
\@writefile{toc}{\contentsline {paragraph}{Correctness.}{20}{section*.50}}
\newlabel{lem:remove}{{2}{20}{Correctness}{lemma.51}{}}
\@writefile{lof}{\contentsline {figure}{\numberline {11}{\ignorespaces The result of Theorem~\ref  {thm-refinement}.}}{21}{figure.55}}
\newlabel{fig:diagPreuve}{{11}{21}{The result of Theorem~\ref {thm-refinement}}{figure.55}{}}
\@writefile{toc}{\contentsline {section}{\numberline {5}Monotonicity of disclosure}{21}{section.53}}
\newlabel{sec:properties}{{5}{21}{Monotonicity of disclosure}{section.53}{}}
\newlabel{sec:monotonicity}{{5}{21}{Monotonicity of disclosure}{section.53}{}}
\newlabel{th:simulation-opacity}{{3}{21}{Monotonicity of disclosure}{theorem.54}{}}
\newlabel{thm-refinement}{{4}{21}{Monotonicity of disclosure}{theorem.56}{}}
\citation{baier05}
\citation{larsen-jonsson}
\citation{baier05}
\citation{baier05}
\newlabel{prop-TraceEquiv}{{3}{23}{Monotonicity of disclosure}{proposition.57}{}}
\newlabel{prop-TraceEquivValue}{{4}{23}{Monotonicity of disclosure}{proposition.58}{}}
\newlabel{cor:prob-bisimulation}{{1}{23}{Monotonicity of disclosure}{corollary.59}{}}
\newlabel{cor:prob-refinement2sens}{{2}{23}{Monotonicity of disclosure}{corollary.60}{}}
\citation{CaillaudDLLPW11}
\citation{CaillaudDLLPW11,Delahaye15}
\bibstyle{spmpsci}
\bibdata{../bibliography}
\newlabel{prop-conjunction}{{5}{24}{Monotonicity of disclosure}{proposition.61}{}}
\@writefile{toc}{\contentsline {section}{\numberline {6}Conclusion}{24}{section.62}}
\newlabel{sec:conclu}{{6}{24}{Conclusion}{section.62}{}}
\@writefile{toc}{\contentsline {section}{\numberline {A}Proof of Proposition~\ref  {prop-TraceEquivValue}}{25}{appendix.63}}
\newlabel{app:proof:prop-TraceEquivValue}{{A}{25}{Proof of Proposition~\ref {prop-TraceEquivValue}}{appendix.63}{}}
